---
http_interactions:
- request:
    method: post
    uri: https://gateway.sandbox.fatzebra.com.au/v1.0/purchases
    body:
      encoding: UTF-8
      string: '{"amount":10000,"card_holder":"Matthew Savage","card_number":"5123456789012346","card_expiry":"02/2030","cvv":123,"reference":"430fbbb144f965978f522e4b5e884619","customer_ip":"1.2.3.4","currency":"AUD","test":true}'
    headers:
      Accept-Encoding:
      - gzip;q=1.0,deflate;q=0.6,identity;q=0.3
      Accept:
      - application/json
      User-Agent:
      - Ruby
      Authorization:
      - Basic VEVTVDpURVNU
      Content-Type:
      - application/json
  response:
    status:
      code: 200
      message: OK
    headers:
      Date:
      - Tue, 08 May 2018 11:08:13 GMT
      Content-Type:
      - application/json; charset=utf-8
      Transfer-Encoding:
      - chunked
      Connection:
      - keep-alive
      Status:
      - 200 OK
      Cache-Control:
      - no-store
      X-Request-Version:
      - 1.16.9-3186@7b619da
      Pragma:
      - no-cache
      X-Xss-Protection:
      - 1; mode=block
      X-Request-Id:
      - 29e4c747d5238ad7dcc69475
      X-Runtime:
      - '0.522358'
      X-Frame-Options:
      - SAMEORIGIN
      X-Content-Type-Options:
      - nosniff
      X-Backend:
      - sbox-priv-gateway-a
    body:
      encoding: UTF-8
      string: '{"successful":true,"response":{"authorization":"298561","id":"071-P-UYF4HDDG","card_number":"512345XXXXXX2346","card_holder":"Matthew
        Savage","card_expiry":"2030-02-28","card_token":"fke85c4u","card_type":"MasterCard","card_category":"Credit","card_subcategory":"Standard","amount":10000,"decimal_amount":100.0,"successful":true,"message":"Approved","reference":"430fbbb144f965978f522e4b5e884619","currency":"AUD","transaction_id":"071-P-UYF4HDDG","settlement_date":"2018-05-08","transaction_date":"2018-05-08T21:08:13.875+10:00","response_code":"00","captured":true,"captured_amount":10000,"rrn":"071PUYF4HDDG","cvv_match":"M","metadata":{},"addendum_data":{}},"errors":[],"test":true}'
    http_version: 
  recorded_at: Tue, 08 May 2018 11:08:14 GMT
- request:
    method: post
    uri: https://gateway.sandbox.fatzebra.com.au/v1.0/refunds
    body:
      encoding: UTF-8
      string: '{"amount":10000,"reference":"430fbbb144f965978f522e4b5e884619","transaction_id":"071-P-UYF4HDDG","test":true}'
    headers:
      Accept-Encoding:
      - gzip;q=1.0,deflate;q=0.6,identity;q=0.3
      Accept:
      - application/json
      User-Agent:
      - Ruby
      Authorization:
      - Basic VEVTVDpURVNU
      Content-Type:
      - application/json
  response:
    status:
      code: 200
      message: OK
    headers:
      Date:
      - Tue, 08 May 2018 11:08:14 GMT
      Content-Type:
      - application/json; charset=utf-8
      Transfer-Encoding:
      - chunked
      Connection:
      - keep-alive
      Status:
      - 200 OK
      Cache-Control:
      - no-store
      X-Request-Version:
      - 1.16.9-3186@7b619da
      Pragma:
      - no-cache
      X-Xss-Protection:
      - 1; mode=block
      X-Request-Id:
      - e06f600ee98aa5920d3c66d2
      X-Runtime:
      - '0.140504'
      X-Frame-Options:
      - SAMEORIGIN
      X-Content-Type-Options:
      - nosniff
      X-Backend:
      - sbox-priv-gateway-a
    body:
      encoding: UTF-8
      string: '{"successful":true,"response":{"authorization":"1525777694","id":"071-R-IMVI9IWN","amount":10000,"refunded":"Approved","message":"Approved","card_holder":"Matthew
        Savage","card_number":"512345XXXXXX2346","card_expiry":"2030-02-28","card_type":"MasterCard","transaction_id":"071-R-IMVI9IWN","reference":"430fbbb144f965978f522e4b5e884619","currency":"AUD","successful":true,"transaction_date":"2018-05-08T21:08:14.154+10:00","response_code":"00","settlement_date":"2018-05-09","metadata":{},"standalone":false,"rrn":"071RIMVI9IWN"},"errors":[],"test":true}'
    http_version: 
  recorded_at: Tue, 08 May 2018 11:08:14 GMT
- request:
    method: post
    uri: https://gateway.sandbox.fatzebra.com.au/v1.0/purchases
    body:
      encoding: UTF-8
      string: '{"amount":10000,"card_holder":"Matthew Savage","card_number":"5123456789012346","card_expiry":"02/2030","cvv":123,"reference":"430fbbb144f965978f522e4b5e884619","customer_ip":"1.2.3.4","currency":"AUD","test":true}'
    headers:
      Accept-Encoding:
      - gzip;q=1.0,deflate;q=0.6,identity;q=0.3
      Accept:
      - application/json
      User-Agent:
      - Ruby
      Authorization:
      - Basic VEVTVDpURVNU
      Content-Type:
      - application/json
  response:
    status:
      code: 200
      message: OK
    headers:
      Date:
      - Tue, 08 May 2018 11:08:14 GMT
      Content-Type:
      - application/json; charset=utf-8
      Transfer-Encoding:
      - chunked
      Connection:
      - keep-alive
      Status:
      - 200 OK
      Cache-Control:
      - no-store
      X-Request-Version:
      - 1.16.9-3186@7b619da
      Pragma:
      - no-cache
      X-Xss-Protection:
      - 1; mode=block
      X-Request-Id:
      - 044909769ddad95478fec508
      X-Runtime:
      - '0.408986'
      X-Frame-Options:
      - SAMEORIGIN
      X-Content-Type-Options:
      - nosniff
      X-Backend:
      - sbox-priv-gateway-a
    body:
      encoding: UTF-8
      string: '{"successful":false,"response":{"authorization":null,"id":"071-P-TD8J4FNO","card_number":"512345XXXXXX2346","card_holder":"Matthew
        Savage","card_expiry":"2030-02-28","card_token":"fke8g4yn","card_type":"MasterCard","card_category":"Credit","card_subcategory":"Standard","amount":10000,"decimal_amount":100.0,"successful":false,"message":null,"reference":"430fbbb144f965978f522e4b5e884619","currency":"AUD","transaction_id":"071-P-TD8J4FNO","settlement_date":null,"transaction_date":null,"response_code":"99","captured":false,"captured_amount":null,"rrn":null,"cvv_match":"U","metadata":{},"addendum_data":{}},"errors":["Reference
        is already taken"],"test":true}'
    http_version: 
  recorded_at: Tue, 08 May 2018 11:08:14 GMT
- request:
    method: post
    uri: https://gateway.sandbox.fatzebra.com.au/v1.0/refunds
    body:
      encoding: UTF-8
      string: '{"amount":10000,"reference":"430fbbb144f965978f522e4b5e884619","transaction_id":"071-P-TD8J4FNO","test":true}'
    headers:
      Accept-Encoding:
      - gzip;q=1.0,deflate;q=0.6,identity;q=0.3
      Accept:
      - application/json
      User-Agent:
      - Ruby
      Authorization:
      - Basic VEVTVDpURVNU
      Content-Type:
      - application/json
  response:
    status:
      code: 200
      message: OK
    headers:
      Date:
      - Tue, 08 May 2018 11:08:14 GMT
      Content-Type:
      - application/json; charset=utf-8
      Transfer-Encoding:
      - chunked
      Connection:
      - keep-alive
      Status:
      - 200 OK
      Cache-Control:
      - no-store
      X-Request-Version:
      - 1.16.9-3186@7b619da
      Pragma:
      - no-cache
      X-Xss-Protection:
      - 1; mode=block
      X-Request-Id:
      - ed8dc6ca8b05b5a0ead10548
      X-Runtime:
      - '0.028234'
      X-Frame-Options:
      - SAMEORIGIN
      X-Content-Type-Options:
      - nosniff
      X-Backend:
      - sbox-priv-gateway-a
    body:
      encoding: UTF-8
      string: '{"successful":false,"response":{},"errors":["Original transaction could
        not be found"],"test":true}'
    http_version: 
  recorded_at: Tue, 08 May 2018 11:08:14 GMT
- request:
    method: get
    uri: https://gateway.sandbox.fatzebra.com.au/v1.0/refunds?limit=10&offets=0&test=true
    body:
      encoding: US-ASCII
      string: ''
    headers:
      Accept-Encoding:
      - gzip;q=1.0,deflate;q=0.6,identity;q=0.3
      Accept:
      - application/json
      User-Agent:
      - Ruby
      Host:
      - gateway.sandbox.fatzebra.com.au
      Authorization:
      - Basic VEVTVDpURVNU
      Content-Type:
      - application/json
  response:
    status:
      code: 200
      message: OK
    headers:
      Date:
      - Tue, 08 May 2018 11:08:15 GMT
      Content-Type:
      - application/json; charset=utf-8
      Transfer-Encoding:
      - chunked
      Connection:
      - keep-alive
      Status:
      - 200 OK
      Cache-Control:
      - no-store
      X-Request-Version:
      - 1.16.9-3186@7b619da
      Pragma:
      - no-cache
      X-Xss-Protection:
      - 1; mode=block
      X-Request-Id:
      - 54a0f36d012ec672373a61c3
      X-Runtime:
      - '0.055963'
      X-Frame-Options:
      - SAMEORIGIN
      X-Content-Type-Options:
      - nosniff
      X-Backend:
      - sbox-priv-gateway-a
    body:
      encoding: UTF-8
      string: '{"successful":true,"response":[{"authorization":"1525777694","id":"071-R-IMVI9IWN","amount":10000,"refunded":"Approved","message":"Approved","card_holder":"Matthew
        Savage","card_number":"512345XXXXXX2346","card_expiry":"2030-02-28","card_type":"MasterCard","transaction_id":"071-R-IMVI9IWN","reference":"430fbbb144f965978f522e4b5e884619","currency":"AUD","successful":true,"transaction_date":"2018-05-08T21:08:14.154+10:00","response_code":"00","settlement_date":"2018-05-09","metadata":{},"standalone":false,"rrn":"071RIMVI9IWN"},{"authorization":"1525777692","id":"071-R-QG16ZJJN","amount":10000,"refunded":"Approved","message":"Approved","card_holder":"Matthew
        Savage","card_number":"512345XXXXXX2346","card_expiry":"2030-02-28","card_type":"MasterCard","transaction_id":"071-R-QG16ZJJN","reference":"ddf1e8ae88a05082c79733e5bbf7fb14","currency":"AUD","successful":true,"transaction_date":"2018-05-08T21:08:12.405+10:00","response_code":"00","settlement_date":"2018-05-09","metadata":{},"standalone":false,"rrn":"071RQG16ZJJN"},{"authorization":"1525777691","id":"071-R-4PXAP2MQ","amount":10000,"refunded":"Approved","message":"Approved","card_holder":"Matthew
        Savage","card_number":"512345XXXXXX2346","card_expiry":"2030-02-28","card_type":"MasterCard","transaction_id":"071-R-4PXAP2MQ","reference":"ec85dc4165d93a6e2fb475a158c58c33","currency":"AUD","successful":true,"transaction_date":"2018-05-08T21:08:11.479+10:00","response_code":"00","settlement_date":"2018-05-09","metadata":{},"standalone":false,"rrn":"071R4PXAP2MQ"},{"authorization":"1525777690","id":"071-R-1HK62871","amount":10000,"refunded":"Approved","message":"Approved","card_holder":"Matthew
        Savage","card_number":"512345XXXXXX2346","card_expiry":"2030-02-28","card_type":"MasterCard","transaction_id":"071-R-1HK62871","reference":"3e0801ec06b1b2e87b73fe5c38dd16c6","currency":"AUD","successful":true,"transaction_date":"2018-05-08T21:08:10.447+10:00","response_code":"00","settlement_date":"2018-05-09","metadata":{},"standalone":false,"rrn":"071R1HK62871"},{"authorization":"1525777689","id":"071-R-DZAJ0WA8","amount":10000,"refunded":"Approved","message":"Approved","card_holder":"Matthew
        Savage","card_number":"512345XXXXXX2346","card_expiry":"2030-02-28","card_type":"MasterCard","transaction_id":"071-R-DZAJ0WA8","reference":"13f7fcbfcc375959df2da4209aa09f79","currency":"AUD","successful":true,"transaction_date":"2018-05-08T21:08:09.331+10:00","response_code":"00","settlement_date":"2018-05-09","metadata":{},"standalone":false,"rrn":"071RDZAJ0WA8"},{"authorization":"1525777688","id":"071-R-C9LWIOFS","amount":10000,"refunded":"Approved","message":"Approved","card_holder":"Matthew
        Savage","card_number":"512345XXXXXX2346","card_expiry":"2030-02-28","card_type":"MasterCard","transaction_id":"071-R-C9LWIOFS","reference":"32b2fb72529154d47f1a777ff21b0346","currency":"AUD","successful":true,"transaction_date":"2018-05-08T21:08:08.501+10:00","response_code":"00","settlement_date":"2018-05-09","metadata":{},"standalone":false,"rrn":"071RC9LWIOFS"},{"authorization":"1525777687","id":"071-R-G8R0DFW7","amount":10000,"refunded":"Approved","message":"Approved","card_holder":"Matthew
        Savage","card_number":"512345XXXXXX2346","card_expiry":"2030-02-28","card_type":"MasterCard","transaction_id":"071-R-G8R0DFW7","reference":"90e3097078f2bf999df0f3ef47d3e36a","currency":"AUD","successful":true,"transaction_date":"2018-05-08T21:08:07.672+10:00","response_code":"00","settlement_date":"2018-05-09","metadata":{},"standalone":false,"rrn":"071RG8R0DFW7"},{"authorization":"1525777686","id":"071-R-DQ1AEZZI","amount":10000,"refunded":"Approved","message":"Approved","card_holder":"Matthew
        Savage","card_number":"512345XXXXXX2346","card_expiry":"2030-02-28","card_type":"MasterCard","transaction_id":"071-R-DQ1AEZZI","reference":"5af6d2ada82e8698826fb6aeb9cba46e","currency":"AUD","successful":true,"transaction_date":"2018-05-08T21:08:06.685+10:00","response_code":"00","settlement_date":"2018-05-09","metadata":{},"standalone":false,"rrn":"071RDQ1AEZZI"},{"authorization":"1525777685","id":"071-R-6H7L7SZE","amount":10000,"refunded":"Approved","message":"Approved","card_holder":"Matthew
        Savage","card_number":"512345XXXXXX2346","card_expiry":"2030-02-28","card_type":"MasterCard","transaction_id":"071-R-6H7L7SZE","reference":"34c068b48d3c551d937b96773b862249","currency":"AUD","successful":true,"transaction_date":"2018-05-08T21:08:05.756+10:00","response_code":"00","settlement_date":"2018-05-09","metadata":{},"standalone":false,"rrn":"071R6H7L7SZE"},{"authorization":"1525777684","id":"071-R-8001963D","amount":10000,"refunded":"Approved","message":"Approved","card_holder":"Matthew
        Savage","card_number":"512345XXXXXX2346","card_expiry":"2030-02-28","card_type":"MasterCard","transaction_id":"071-R-8001963D","reference":"448f9dbc503dc14bd355522ec8727c4b","currency":"AUD","successful":true,"transaction_date":"2018-05-08T21:08:04.818+10:00","response_code":"00","settlement_date":"2018-05-09","metadata":{},"standalone":false,"rrn":"071R8001963D"}],"errors":[],"test":true,"records":10,"total_records":22005,"page":1,"total_pages":2201}'
    http_version: 
  recorded_at: Tue, 08 May 2018 11:08:15 GMT
recorded_with: VCR 3.0.3
