---
http_interactions:
- request:
    method: post
    uri: https://gateway.sandbox.fatzebra.com.au/v1.0/purchases
    body:
      encoding: UTF-8
      string: '{"amount":10000,"card_holder":"Matthew Savage","card_number":"5123456789012346","card_expiry":"02/2030","cvv":123,"reference":"d1d63c0dbe218d3f7854ace315e67fa6","customer_ip":"1.2.3.4","currency":"AUD","test":true}'
    headers:
      Accept:
      - application/json
      Accept-Encoding:
      - gzip, deflate
      Content-Type:
      - application/json
      Content-Length:
      - '214'
      User-Agent:
      - Ruby
      Authorization:
      - Basic VEVTVDpURVNU
  response:
    status:
      code: 200
      message: OK
    headers:
      Date:
      - Tue, 27 Jun 2017 05:09:30 GMT
      Content-Type:
      - application/json; charset=utf-8
      Transfer-Encoding:
      - chunked
      Connection:
      - keep-alive
      Status:
      - 200 OK
      Cache-Control:
      - no-store
      X-Request-Version:
      - 1.19.41
      Pragma:
      - no-cache
      X-Request-Id:
      - 3f355143147f35f5a3f310a222ec7d0f
      X-Runtime:
      - '0.449303'
      X-Rack-Cache:
      - invalidate, pass
      X-Backend:
      - sbox-priv-gateway-a
    body:
      encoding: UTF-8
      string: '{"successful":true,"response":{"authorization":"847555","id":"071-P-3RMKLUL0","card_number":"512345XXXXXX2346","card_holder":"Matthew
        Savage","card_expiry":"2030-02-28","card_token":"fke86c5u","card_type":"MasterCard","card_category":"Credit","card_subcategory":"Standard","amount":10000,"decimal_amount":100.0,"successful":true,"message":"Approved","reference":"d1d63c0dbe218d3f7854ace315e67fa6","currency":"AUD","transaction_id":"071-P-3RMKLUL0","settlement_date":"2017-06-27","transaction_date":"2017-06-27T15:09:29+10:00","response_code":"00","captured":true,"captured_amount":10000,"rrn":"071P3RMKLUL0","cvv_match":"M","metadata":{},"addendum_data":{}},"errors":[],"test":true}'
    http_version: 
  recorded_at: Tue, 27 Jun 2017 05:09:30 GMT
- request:
    method: post
    uri: https://gateway.sandbox.fatzebra.com.au/v1.0/refunds
    body:
      encoding: UTF-8
      string: '{"amount":10000,"reference":"d1d63c0dbe218d3f7854ace315e67fa6","transaction_id":"071-P-3RMKLUL0","test":true}'
    headers:
      Accept:
      - application/json
      Accept-Encoding:
      - gzip, deflate
      Content-Type:
      - application/json
      Content-Length:
      - '109'
      User-Agent:
      - Ruby
      Authorization:
      - Basic VEVTVDpURVNU
  response:
    status:
      code: 200
      message: OK
    headers:
      Date:
      - Tue, 27 Jun 2017 05:09:30 GMT
      Content-Type:
      - application/json; charset=utf-8
      Transfer-Encoding:
      - chunked
      Connection:
      - keep-alive
      Status:
      - 200 OK
      Cache-Control:
      - no-store
      X-Request-Version:
      - 1.19.41
      Pragma:
      - no-cache
      X-Request-Id:
      - 6cfed301f9957c1d881ee0de088af9e8
      X-Runtime:
      - '0.142685'
      X-Rack-Cache:
      - invalidate, pass
      X-Backend:
      - sbox-priv-gateway-a
    body:
      encoding: UTF-8
      string: '{"successful":true,"response":{"authorization":1498540170,"id":"071-R-DOI12P0P","amount":10000,"refunded":"Approved","message":"Approved","card_holder":"Matthew
        Savage","card_number":"512345XXXXXX2346","card_expiry":"2030-02-28","card_type":"MasterCard","transaction_id":"071-R-DOI12P0P","reference":"d1d63c0dbe218d3f7854ace315e67fa6","currency":"AUD","successful":true,"transaction_date":"2017-06-27T15:09:30+10:00","response_code":"00","settlement_date":"2017-06-28","metadata":{},"standalone":false,"rrn":"071RDOI12P0P"},"errors":[],"test":true}'
    http_version: 
  recorded_at: Tue, 27 Jun 2017 05:09:30 GMT
- request:
    method: post
    uri: https://gateway.sandbox.fatzebra.com.au/v1.0/purchases
    body:
      encoding: UTF-8
      string: '{"amount":10000,"card_holder":"Matthew Savage","card_number":"5123456789012346","card_expiry":"02/2030","cvv":123,"reference":"d1d63c0dbe218d3f7854ace315e67fa6","customer_ip":"1.2.3.4","currency":"AUD","test":true}'
    headers:
      Accept:
      - application/json
      Accept-Encoding:
      - gzip, deflate
      Content-Type:
      - application/json
      Content-Length:
      - '214'
      User-Agent:
      - Ruby
      Authorization:
      - Basic VEVTVDpURVNU
  response:
    status:
      code: 200
      message: OK
    headers:
      Date:
      - Tue, 27 Jun 2017 05:09:30 GMT
      Content-Type:
      - application/json; charset=utf-8
      Transfer-Encoding:
      - chunked
      Connection:
      - keep-alive
      Status:
      - 200 OK
      Cache-Control:
      - no-store
      X-Request-Version:
      - 1.19.41
      Pragma:
      - no-cache
      X-Request-Id:
      - 1427ee5c060266f6b9794cea26ef3cff
      X-Runtime:
      - '0.234343'
      X-Rack-Cache:
      - invalidate, pass
      X-Backend:
      - sbox-priv-gateway-a
    body:
      encoding: UTF-8
      string: '{"successful":false,"response":{"authorization":null,"id":"071-P-B361B7SJ","card_number":"512345XXXXXX2346","card_holder":"Matthew
        Savage","card_expiry":"2030-02-28","card_token":"fke86c5u","card_type":"MasterCard","card_category":"Credit","card_subcategory":"Standard","amount":10000,"decimal_amount":100.0,"successful":false,"message":null,"reference":"d1d63c0dbe218d3f7854ace315e67fa6","currency":"AUD","transaction_id":"071-P-B361B7SJ","settlement_date":null,"transaction_date":null,"response_code":"99","captured":false,"captured_amount":null,"rrn":null,"cvv_match":"U","metadata":{},"addendum_data":null},"errors":["Reference
        is already taken"],"test":true}'
    http_version: 
  recorded_at: Tue, 27 Jun 2017 05:09:30 GMT
- request:
    method: post
    uri: https://gateway.sandbox.fatzebra.com.au/v1.0/refunds
    body:
      encoding: UTF-8
      string: '{"amount":10000,"reference":"d1d63c0dbe218d3f7854ace315e67fa6","transaction_id":"071-P-B361B7SJ","test":true}'
    headers:
      Accept:
      - application/json
      Accept-Encoding:
      - gzip, deflate
      Content-Type:
      - application/json
      Content-Length:
      - '109'
      User-Agent:
      - Ruby
      Authorization:
      - Basic VEVTVDpURVNU
  response:
    status:
      code: 200
      message: OK
    headers:
      Date:
      - Tue, 27 Jun 2017 05:09:30 GMT
      Content-Type:
      - application/json; charset=utf-8
      Transfer-Encoding:
      - chunked
      Connection:
      - keep-alive
      Status:
      - 200 OK
      Cache-Control:
      - no-store
      X-Request-Version:
      - 1.19.41
      Pragma:
      - no-cache
      X-Request-Id:
      - 8c8ec708377bd5a5f54027f19897e0bf
      X-Runtime:
      - '0.025040'
      X-Rack-Cache:
      - invalidate, pass
      X-Backend:
      - sbox-priv-gateway-a
    body:
      encoding: UTF-8
      string: '{"successful":false,"response":{},"errors":["Original transaction could
        not be found"],"test":true}'
    http_version: 
  recorded_at: Tue, 27 Jun 2017 05:09:30 GMT
- request:
    method: get
    uri: https://gateway.sandbox.fatzebra.com.au/v1.0/refunds?limit=10&offets=0&test=true
    body:
      encoding: US-ASCII
      string: ''
    headers:
      Accept:
      - application/json
      Accept-Encoding:
      - gzip, deflate
      Content-Type:
      - application/json
      User-Agent:
      - Ruby
      Authorization:
      - Basic VEVTVDpURVNU
  response:
    status:
      code: 200
      message: OK
    headers:
      Date:
      - Tue, 27 Jun 2017 05:09:30 GMT
      Content-Type:
      - application/json; charset=utf-8
      Transfer-Encoding:
      - chunked
      Connection:
      - keep-alive
      Status:
      - 200 OK
      Cache-Control:
      - no-store, private
      X-Request-Version:
      - 1.19.41
      Pragma:
      - no-cache
      X-Request-Id:
      - 561794aa94041655244e3ed5041fda9f
      X-Runtime:
      - '0.071320'
      X-Rack-Cache:
      - miss
      X-Backend:
      - sbox-priv-gateway-a
    body:
      encoding: UTF-8
      string: '{"successful":true,"response":[{"authorization":"1498540170","id":"071-R-DOI12P0P","amount":10000,"refunded":"Approved","message":"Approved","card_holder":"Matthew
        Savage","card_number":"512345XXXXXX2346","card_expiry":"2030-02-28","card_type":"MasterCard","transaction_id":"071-R-DOI12P0P","reference":"d1d63c0dbe218d3f7854ace315e67fa6","currency":"AUD","successful":true,"transaction_date":"2017-06-27T15:09:30+10:00","response_code":"00","settlement_date":"2017-06-28","metadata":{},"standalone":false,"rrn":"071RDOI12P0P"},{"authorization":"1498540169","id":"071-R-EAZKFUV0","amount":10000,"refunded":"Approved","message":"Approved","card_holder":"Matthew
        Savage","card_number":"512345XXXXXX2346","card_expiry":"2030-02-28","card_type":"MasterCard","transaction_id":"071-R-EAZKFUV0","reference":"a1a4e6b888cd46edb989937e1d500863","currency":"AUD","successful":true,"transaction_date":"2017-06-27T15:09:29+10:00","response_code":"00","settlement_date":"2017-06-28","metadata":{},"standalone":false,"rrn":"071REAZKFUV0"},{"authorization":"1498540168","id":"071-R-TFCM55GS","amount":10000,"refunded":"Approved","message":"Approved","card_holder":"Matthew
        Savage","card_number":"512345XXXXXX2346","card_expiry":"2030-02-28","card_type":"MasterCard","transaction_id":"071-R-TFCM55GS","reference":"0cb428ed87e4ba525a37f97bbd24f933","currency":"AUD","successful":true,"transaction_date":"2017-06-27T15:09:28+10:00","response_code":"00","settlement_date":"2017-06-28","metadata":{},"standalone":false,"rrn":"071RTFCM55GS"},{"authorization":"1498540167","id":"071-R-A2GC4J8W","amount":10000,"refunded":"Approved","message":"Approved","card_holder":"Matthew
        Savage","card_number":"512345XXXXXX2346","card_expiry":"2030-02-28","card_type":"MasterCard","transaction_id":"071-R-A2GC4J8W","reference":"d32da43754a5af3b069b79d29c9c9b0d","currency":"AUD","successful":true,"transaction_date":"2017-06-27T15:09:27+10:00","response_code":"00","settlement_date":"2017-06-28","metadata":{},"standalone":false,"rrn":"071RA2GC4J8W"},{"authorization":"1498540167","id":"071-R-ZG3O434G","amount":10000,"refunded":"Approved","message":"Approved","card_holder":"Matthew
        Savage","card_number":"512345XXXXXX2346","card_expiry":"2030-02-28","card_type":"MasterCard","transaction_id":"071-R-ZG3O434G","reference":"904e8c64f428a5428b828017af520eab","currency":"AUD","successful":true,"transaction_date":"2017-06-27T15:09:26+10:00","response_code":"00","settlement_date":"2017-06-28","metadata":{},"standalone":false,"rrn":"071RZG3O434G"},{"authorization":"1498540166","id":"071-R-9OHV5GYN","amount":10000,"refunded":"Approved","message":"Approved","card_holder":"Matthew
        Savage","card_number":"512345XXXXXX2346","card_expiry":"2030-02-28","card_type":"MasterCard","transaction_id":"071-R-9OHV5GYN","reference":"40e3c8f6bf72279903b99ceb33c7646b","currency":"AUD","successful":true,"transaction_date":"2017-06-27T15:09:26+10:00","response_code":"00","settlement_date":"2017-06-28","metadata":{},"standalone":false,"rrn":"071R9OHV5GYN"},{"authorization":"1498540165","id":"071-R-ZC9UHEU3","amount":10000,"refunded":"Approved","message":"Approved","card_holder":"Matthew
        Savage","card_number":"512345XXXXXX2346","card_expiry":"2030-02-28","card_type":"MasterCard","transaction_id":"071-R-ZC9UHEU3","reference":"bc48f295e4f9ff50fe875f8e70a07d97","currency":"AUD","successful":true,"transaction_date":"2017-06-27T15:09:25+10:00","response_code":"00","settlement_date":"2017-06-28","metadata":{},"standalone":false,"rrn":"071RZC9UHEU3"},{"authorization":"1498540164","id":"071-R-M3BQFHM7","amount":10000,"refunded":"Approved","message":"Approved","card_holder":"Matthew
        Savage","card_number":"512345XXXXXX2346","card_expiry":"2030-02-28","card_type":"MasterCard","transaction_id":"071-R-M3BQFHM7","reference":"9ff838ebfa924a905780c0ec9b493747","currency":"AUD","successful":true,"transaction_date":"2017-06-27T15:09:24+10:00","response_code":"00","settlement_date":"2017-06-28","metadata":{},"standalone":false,"rrn":"071RM3BQFHM7"},{"authorization":"1498540164","id":"071-R-5K2XLR8N","amount":10000,"refunded":"Approved","message":"Approved","card_holder":"Matthew
        Savage","card_number":"512345XXXXXX2346","card_expiry":"2030-02-28","card_type":"MasterCard","transaction_id":"071-R-5K2XLR8N","reference":"211709ab25fc165b358c2344ec6406bc","currency":"AUD","successful":true,"transaction_date":"2017-06-27T15:09:24+10:00","response_code":"00","settlement_date":"2017-06-28","metadata":{},"standalone":false,"rrn":"071R5K2XLR8N"},{"authorization":"1498540163","id":"071-R-1A9MO9EE","amount":10000,"refunded":"Approved","message":"Approved","card_holder":"Matthew
        Savage","card_number":"512345XXXXXX2346","card_expiry":"2030-02-28","card_type":"MasterCard","transaction_id":"071-R-1A9MO9EE","reference":"0d95e19fd047afa59a0a63e3298b0c7e","currency":"AUD","successful":true,"transaction_date":"2017-06-27T15:09:23+10:00","response_code":"00","settlement_date":"2017-06-28","metadata":{},"standalone":false,"rrn":"071R1A9MO9EE"}],"errors":[],"test":true,"records":10,"total_records":16528,"page":1,"total_pages":1653}'
    http_version: 
  recorded_at: Tue, 27 Jun 2017 05:09:30 GMT
recorded_with: VCR 3.0.3
