---
http_interactions:
- request:
    method: get
    uri: https://gateway.sandbox.fatzebra.com.au/v1.0/customers?limit=10&offets=0&test=true
    body:
      encoding: US-ASCII
      string: ''
    headers:
      Accept-Encoding:
      - gzip;q=1.0,deflate;q=0.6,identity;q=0.3
      Accept:
      - application/json
      User-Agent:
      - Ruby
      Host:
      - gateway.sandbox.fatzebra.com.au
      Authorization:
      - Basic VEVTVDpURVNU
      Content-Type:
      - application/json
  response:
    status:
      code: 200
      message: OK
    headers:
      Date:
      - Wed, 02 May 2018 23:12:04 GMT
      Content-Type:
      - application/json; charset=utf-8
      Transfer-Encoding:
      - chunked
      Connection:
      - keep-alive
      Status:
      - 200 OK
      X-Rack-Cache:
      - miss
      Cache-Control:
      - no-store, private
      X-Request-Version:
      - 1.16.9-3156@6c1a40b
      X-Runtime:
      - '0.036856'
      Pragma:
      - no-cache
      X-Request-Id:
      - 59611420df1d6200307a6e20
      X-Backend:
      - sbox-priv-gateway-a
    body:
      encoding: UTF-8
      string: '{"successful":true,"response":[{"id":"071-C-5MYKUG13","email":null,"reference":"26902925bfb4ddc6be6a3052afb764d9","first_name":"Harrold","last_name":"Humphries","created_at":"2018-05-03T09:12:03+10:00","address":{"address":"1
        Harriet Road","city":"Kooliablin","state":"NSW","postcode":"2222","country":"Australia"},"card_token":"fke8to35","card_number":"512345XXXXXX2346","bank_account":null,"metadata":{}},{"id":"071-C-1OA62EVF","email":null,"reference":"f0d2b09604fb6aa950b2be0cacf439fd","first_name":"Harrold","last_name":"Humphries","created_at":"2018-05-03T09:12:02+10:00","address":{"address":"1
        Harriet Road","city":"Kooliablin","state":"NSW","postcode":"2222","country":"Australia"},"card_token":"fke8c39m","card_number":"512345XXXXXX2346","bank_account":null,"metadata":{}},{"id":"071-C-XPT2YR1","email":null,"reference":"44f4269e9f571a063a79a9be804786ed","first_name":"Harrold","last_name":"Humphries","created_at":"2018-05-03T09:12:02+10:00","address":{"address":"1
        Harriet Road","city":"Kooliablin","state":"NSW","postcode":"2222","country":"Australia"},"card_token":"fke83axk","card_number":"512345XXXXXX2346","bank_account":null,"metadata":{}},{"id":"071-C-E7JZVNON","email":null,"reference":"58236d86f108e5af0652c5d8e8869bf7","first_name":"Harrold","last_name":"Humphries","created_at":"2018-05-03T09:12:01+10:00","address":{"address":"1
        Harriet Road","city":"Kooliablin","state":"NSW","postcode":"2222","country":"Australia"},"card_token":"fke88a6n","card_number":"512345XXXXXX2346","bank_account":null,"metadata":{}},{"id":"071-C-A47GRFGL","email":null,"reference":"7313ae5301aaa8a4a35fcf7e983712d1","first_name":"Harrold","last_name":"Humphries","created_at":"2018-05-03T09:12:01+10:00","address":{"address":"1
        Harriet Road","city":"Kooliablin","state":"NSW","postcode":"2222","country":"Australia"},"card_token":"fke8qfu8","card_number":"512345XXXXXX2346","bank_account":null,"metadata":{}},{"id":"071-C-UEJKPPN4","email":null,"reference":"8404be1195978caf4a2618a91d548d7a","first_name":"Harrold","last_name":"Humphries","created_at":"2018-05-03T09:12:00+10:00","address":{"address":"1
        Harriet Road","city":"Kooliablin","state":"NSW","postcode":"2222","country":"Australia"},"card_token":"fke8uvum","card_number":"512345XXXXXX2346","bank_account":null,"metadata":{}},{"id":"071-C-VQO03QCF","email":null,"reference":"314c2023c9b7cefb41cdc1d2e838b302","first_name":"Harrold","last_name":"Humphries","created_at":"2018-05-03T09:08:22+10:00","address":{"address":"1
        Harriet Road","city":"Kooliablin","state":"NSW","postcode":"2222","country":"Australia"},"card_token":"fke87ef0","card_number":"512345XXXXXX2346","bank_account":null,"metadata":{}},{"id":"071-C-3P5THJ4U","email":null,"reference":"3755be58dc320209cbd55babab3b92ab","first_name":"Harrold","last_name":"Humphries","created_at":"2018-05-03T09:08:21+10:00","address":{"address":"1
        Harriet Road","city":"Kooliablin","state":"NSW","postcode":"2222","country":"Australia"},"card_token":"fke8gtlc","card_number":"512345XXXXXX2346","bank_account":null,"metadata":{}},{"id":"071-C-PM060T5X","email":null,"reference":"0a3c0390e2e2582725cb23a1c47d26a6","first_name":"Harrold","last_name":"Humphries","created_at":"2018-05-03T09:08:20+10:00","address":{"address":"1
        Harriet Road","city":"Kooliablin","state":"NSW","postcode":"2222","country":"Australia"},"card_token":"fke8wfax","card_number":"512345XXXXXX2346","bank_account":null,"metadata":{}},{"id":"071-C-LZEB1F2B","email":null,"reference":"3f8c7e96e7776bd3287c9f8292c83c77","first_name":"Harrold","last_name":"Humphries","created_at":"2018-05-03T09:08:20+10:00","address":{"address":"1
        Harriet Road","city":"Kooliablin","state":"NSW","postcode":"2222","country":"Australia"},"card_token":"fke8id4a","card_number":"512345XXXXXX2346","bank_account":null,"metadata":{}}],"errors":[],"test":true,"records":10,"total_records":1534,"page":1,"total_pages":154}'
    http_version: 
  recorded_at: Wed, 02 May 2018 23:12:02 GMT
recorded_with: VCR 3.0.3
