---
http_interactions:
- request:
    method: get
    uri: https://gateway.sandbox.fatzebra.com.au/v1.0/customers?limit=10&offset=0&test=true
    body:
      encoding: US-ASCII
      string: ''
    headers:
      Accept-Encoding:
      - gzip;q=1.0,deflate;q=0.6,identity;q=0.3
      Accept:
      - application/json
      User-Agent:
      - Ruby
      Host:
      - gateway.sandbox.fatzebra.com.au
      Authorization:
      - Basic VEVTVDpURVNU
      Content-Type:
      - application/json
  response:
    status:
      code: 200
      message: OK
    headers:
      Date:
      - Wed, 25 Jul 2018 03:20:47 GMT
      Content-Type:
      - application/json; charset=utf-8
      Transfer-Encoding:
      - chunked
      Connection:
      - keep-alive
      Status:
      - 200 OK
      Cache-Control:
      - no-store
      X-Request-Version:
      - 1.16.9-3480@96677e4
      X-Runtime:
      - '0.045727'
      Pragma:
      - no-cache
      X-Request-Id:
      - 2c6c0b709862be2a5ca84cfe
      X-Backend:
      - sbox-priv-gateway-a
    body:
      encoding: UTF-8
      string: '{"successful":true,"response":[{"id":"071-C-U4FOQIH","email":null,"reference":"b411186e88edcc7b8b836b687753bcc5","first_name":"Harrold","last_name":"Humphries","created_at":"2018-07-25T13:15:37+10:00","address":{"address":"1
        Harriet Road","city":"Kooliablin","state":"NSW","postcode":"2222","country":"Australia"},"card_token":"fke81h7p","card_number":"512345XXXXXX2346","bank_account":null,"metadata":null},{"id":"071-C-IPJOX1GZ","email":null,"reference":"09d874a4630bc700970a81b6c1f1e654","first_name":"Harrold","last_name":"Humphries","created_at":"2018-07-25T13:15:35+10:00","address":{"address":"1
        Harriet Road","city":"Kooliablin","state":"NSW","postcode":"2222","country":"Australia"},"card_token":"fke8x92e","card_number":"512345XXXXXX2346","bank_account":null,"metadata":null},{"id":"071-C-4XEP3WN5","email":null,"reference":"f58ca564817765c6961386699b53b0d6","first_name":"Harrold","last_name":"Humphries","created_at":"2018-07-25T13:15:34+10:00","address":{"address":"1
        Harriet Road","city":"Kooliablin","state":"NSW","postcode":"2222","country":"Australia"},"card_token":"fke8gm6n","card_number":"512345XXXXXX2346","bank_account":null,"metadata":null},{"id":"071-C-WEEAG0C8","email":null,"reference":"42074f77db453ae990153f0d50b048b5","first_name":"Harrold","last_name":"Humphries","created_at":"2018-07-25T13:15:32+10:00","address":{"address":"1
        Harriet Road","city":"Kooliablin","state":"NSW","postcode":"2222","country":"Australia"},"card_token":"fke87k2f","card_number":"512345XXXXXX2346","bank_account":null,"metadata":null},{"id":"071-C-1F26GS2E","email":null,"reference":"8a00d5f2ac01e873cb95d849aac4f740","first_name":"Harrold","last_name":"Humphries","created_at":"2018-07-25T13:15:31+10:00","address":{"address":"1
        Harriet Road","city":"Kooliablin","state":"NSW","postcode":"2222","country":"Australia"},"card_token":"fke8ju78","card_number":"512345XXXXXX2346","bank_account":null,"metadata":null},{"id":"071-C-SYOPP0J2","email":null,"reference":"254535d64d85d971894d878217fa990f","first_name":"Harrold","last_name":"Humphries","created_at":"2018-07-25T13:15:29+10:00","address":{"address":"1
        Harriet Road","city":"Kooliablin","state":"NSW","postcode":"2222","country":"Australia"},"card_token":"fke8u9pf","card_number":"512345XXXXXX2346","bank_account":null,"metadata":null},{"id":"071-C-OTW0D87Q","email":null,"reference":"cba870fe803093770e790408036e5c21","first_name":"Harrold","last_name":"Humphries","created_at":"2018-07-25T13:15:28+10:00","address":{"address":"1
        Harriet Road","city":"Kooliablin","state":"NSW","postcode":"2222","country":"Australia"},"card_token":"fke8a5he","card_number":"512345XXXXXX2346","bank_account":null,"metadata":null},{"id":"071-C-B00SK9T4","email":null,"reference":"02fe33c060aec567f9ac765b23080c25","first_name":"Harrold","last_name":"Humphries","created_at":"2018-07-25T13:15:26+10:00","address":{"address":"1
        Harriet Road","city":"Kooliablin","state":"NSW","postcode":"2222","country":"Australia"},"card_token":"fke8dtt0","card_number":"512345XXXXXX2346","bank_account":null,"metadata":null},{"id":"071-C-DA0EAQE9","email":null,"reference":"694cb1abd37e6be772459a5ecac03f67","first_name":"Harrold","last_name":"Humphries","created_at":"2018-07-25T13:15:25+10:00","address":{"address":"1
        Harriet Road","city":"Kooliablin","state":"NSW","postcode":"2222","country":"Australia"},"card_token":"fke8w37q","card_number":"512345XXXXXX2346","bank_account":null,"metadata":null},{"id":"071-C-TN10RNWJ","email":null,"reference":"e841bc2d33a1fa8a813cb140ee662d3b","first_name":"Harrold","last_name":"Humphries","created_at":"2018-07-25T13:15:23+10:00","address":{"address":"1
        Harriet Road","city":"Kooliablin","state":"NSW","postcode":"2222","country":"Australia"},"card_token":"fke89pgv","card_number":"512345XXXXXX2346","bank_account":null,"metadata":null}],"errors":[],"test":true,"records":10,"total_records":2066,"page":1,"total_pages":207}'
    http_version: 
  recorded_at: Wed, 25 Jul 2018 03:20:45 GMT
recorded_with: VCR 3.0.3
