---
http_interactions:
- request:
    method: post
    uri: https://gateway.sandbox.fatzebra.com.au/v1.0/bank_accounts
    body:
      encoding: UTF-8
      string: '{"bsb":"123-123","account_name":"Test name","account_number":"012345678","test":true}'
    headers:
      Accept-Encoding:
      - gzip;q=1.0,deflate;q=0.6,identity;q=0.3
      Accept:
      - application/json
      User-Agent:
      - Ruby
      Authorization:
      - Basic VEVTVDpURVNU
      Content-Type:
      - application/json
  response:
    status:
      code: 201
      message: Created
    headers:
      Date:
      - Wed, 02 May 2018 23:11:53 GMT
      Content-Type:
      - application/json; charset=utf-8
      Transfer-Encoding:
      - chunked
      Connection:
      - keep-alive
      Status:
      - 201 Created
      X-Rack-Cache:
      - invalidate, pass
      Cache-Control:
      - no-store
      X-Request-Version:
      - 1.16.9-3156@6c1a40b
      X-Runtime:
      - '0.033138'
      Pragma:
      - no-cache
      X-Request-Id:
      - d2a8a5402cc1cfe05157c3c0
      X-Backend:
      - sbox-priv-gateway-a
    body:
      encoding: UTF-8
      string: '{"successful":true,"response":{"id":"071-B-UYD24RY","account_name":"Test
        name","account_number":"012345678","bsb":"123-123","created_at":"2018-05-03T09:11:53+10:00"},"errors":[],"test":true}'
    http_version: 
  recorded_at: Wed, 02 May 2018 23:11:52 GMT
- request:
    method: post
    uri: https://gateway.sandbox.fatzebra.com.au/v1.0/bank_accounts
    body:
      encoding: UTF-8
      string: '{"bsb":"123-123","account_name":"Test name","account_number":"012345678","test":true}'
    headers:
      Accept-Encoding:
      - gzip;q=1.0,deflate;q=0.6,identity;q=0.3
      Accept:
      - application/json
      User-Agent:
      - Ruby
      Authorization:
      - Basic VEVTVDpURVNU
      Content-Type:
      - application/json
  response:
    status:
      code: 201
      message: Created
    headers:
      Date:
      - Wed, 02 May 2018 23:11:53 GMT
      Content-Type:
      - application/json; charset=utf-8
      Transfer-Encoding:
      - chunked
      Connection:
      - keep-alive
      Status:
      - 201 Created
      X-Rack-Cache:
      - invalidate, pass
      Cache-Control:
      - no-store
      X-Request-Version:
      - 1.16.9-3156@6c1a40b
      X-Runtime:
      - '0.026876'
      Pragma:
      - no-cache
      X-Request-Id:
      - 3187f8205b00d2e09c4714a0
      X-Backend:
      - sbox-priv-gateway-a
    body:
      encoding: UTF-8
      string: '{"successful":true,"response":{"id":"071-B-5H9KIWAW","account_name":"Test
        name","account_number":"012345678","bsb":"123-123","created_at":"2018-05-03T09:11:53+10:00"},"errors":[],"test":true}'
    http_version: 
  recorded_at: Wed, 02 May 2018 23:11:52 GMT
- request:
    method: get
    uri: https://gateway.sandbox.fatzebra.com.au/v1.0/bank_accounts?limit=10&offets=0&test=true
    body:
      encoding: US-ASCII
      string: ''
    headers:
      Accept-Encoding:
      - gzip;q=1.0,deflate;q=0.6,identity;q=0.3
      Accept:
      - application/json
      User-Agent:
      - Ruby
      Host:
      - gateway.sandbox.fatzebra.com.au
      Authorization:
      - Basic VEVTVDpURVNU
      Content-Type:
      - application/json
  response:
    status:
      code: 200
      message: OK
    headers:
      Date:
      - Wed, 02 May 2018 23:11:53 GMT
      Content-Type:
      - application/json; charset=utf-8
      Transfer-Encoding:
      - chunked
      Connection:
      - keep-alive
      Status:
      - 200 OK
      X-Rack-Cache:
      - miss
      Cache-Control:
      - no-store, private
      X-Request-Version:
      - 1.16.9-3156@6c1a40b
      X-Runtime:
      - '0.022399'
      Pragma:
      - no-cache
      X-Request-Id:
      - 4265f3658440ea1db3ed0792
      X-Backend:
      - sbox-priv-gateway-a
    body:
      encoding: UTF-8
      string: '{"successful":true,"response":[{"id":"071-B-5H9KIWAW","account_name":"Test
        name","account_number":"012345678","bsb":"123-123","created_at":"2018-05-03T09:11:53+10:00"},{"id":"071-B-UYD24RY","account_name":"Test
        name","account_number":"012345678","bsb":"123-123","created_at":"2018-05-03T09:11:53+10:00"},{"id":"071-B-7LK7EIAE","account_name":"Test
        name","account_number":"012345678","bsb":"123-123","created_at":"2018-05-03T09:11:53+10:00"},{"id":"071-B-9VYE93D2","account_name":"Test
        name","account_number":"012345678","bsb":"123-123","created_at":"2018-05-03T09:11:53+10:00"},{"id":"071-B-TX1LQ9PE","account_name":"Test
        name","account_number":"012345678","bsb":"123-123","created_at":"2018-05-03T09:11:53+10:00"},{"id":"071-B-ZUTWKDP9","account_name":"Test
        name","account_number":"012345678","bsb":"123-123","created_at":"2018-05-03T09:11:53+10:00"},{"id":"071-B-OY28Q663","account_name":"Test
        name","account_number":"012345678","bsb":"123-123","created_at":"2018-05-03T09:11:53+10:00"},{"id":"071-B-34X7WCFH","account_name":"Test
        name","account_number":"012345678","bsb":"123-123","created_at":"2018-05-03T09:11:53+10:00"},{"id":"071-B-AGC5YIV5","account_name":"Test
        name","account_number":"012345678","bsb":"123-123","created_at":"2018-05-03T09:07:47+10:00"},{"id":"071-B-M0DSV57M","account_name":"Test
        name","account_number":"012345678","bsb":"123-123","created_at":"2018-05-03T09:07:47+10:00"}],"errors":[],"test":true,"records":10,"total_records":656,"page":1,"total_pages":66}'
    http_version: 
  recorded_at: Wed, 02 May 2018 23:11:52 GMT
recorded_with: VCR 3.0.3
