---
http_interactions:
- request:
    method: post
    uri: https://gateway.sandbox.fatzebra.com.au/v1.0/bank_accounts
    body:
      encoding: UTF-8
      string: '{"bsb":"123-123","account_name":"Test name","account_number":"012345678","test":true}'
    headers:
      Accept-Encoding:
      - gzip;q=1.0,deflate;q=0.6,identity;q=0.3
      Accept:
      - application/json
      User-Agent:
      - Ruby
      Authorization:
      - Basic VEVTVDpURVNU
      Content-Type:
      - application/json
  response:
    status:
      code: 201
      message: Created
    headers:
      Date:
      - Tue, 08 May 2018 11:06:31 GMT
      Content-Type:
      - application/json; charset=utf-8
      Transfer-Encoding:
      - chunked
      Connection:
      - keep-alive
      Status:
      - 201 Created
      Cache-Control:
      - no-store
      X-Request-Version:
      - 1.16.9-3186@7b619da
      Pragma:
      - no-cache
      X-Xss-Protection:
      - 1; mode=block
      X-Request-Id:
      - 15cfd476c62415f225cf5fd9
      X-Runtime:
      - '0.030412'
      X-Frame-Options:
      - SAMEORIGIN
      X-Content-Type-Options:
      - nosniff
      X-Backend:
      - sbox-priv-gateway-a
    body:
      encoding: UTF-8
      string: '{"successful":true,"response":{"id":"071-B-3G1M5QGK","account_name":"Test
        name","account_number":"012345678","bsb":"123-123","created_at":"2018-05-08T21:06:31.770+10:00"},"errors":[],"test":true}'
    http_version: 
  recorded_at: Tue, 08 May 2018 11:06:31 GMT
- request:
    method: post
    uri: https://gateway.sandbox.fatzebra.com.au/v1.0/bank_accounts
    body:
      encoding: UTF-8
      string: '{"bsb":"123-123","account_name":"Test name","account_number":"012345678","test":true}'
    headers:
      Accept-Encoding:
      - gzip;q=1.0,deflate;q=0.6,identity;q=0.3
      Accept:
      - application/json
      User-Agent:
      - Ruby
      Authorization:
      - Basic VEVTVDpURVNU
      Content-Type:
      - application/json
  response:
    status:
      code: 201
      message: Created
    headers:
      Date:
      - Tue, 08 May 2018 11:06:31 GMT
      Content-Type:
      - application/json; charset=utf-8
      Transfer-Encoding:
      - chunked
      Connection:
      - keep-alive
      Status:
      - 201 Created
      Cache-Control:
      - no-store
      X-Request-Version:
      - 1.16.9-3186@7b619da
      Pragma:
      - no-cache
      X-Xss-Protection:
      - 1; mode=block
      X-Request-Id:
      - 17278b6db398841782a6dbb3
      X-Runtime:
      - '0.035987'
      X-Frame-Options:
      - SAMEORIGIN
      X-Content-Type-Options:
      - nosniff
      X-Backend:
      - sbox-priv-gateway-a
    body:
      encoding: UTF-8
      string: '{"successful":true,"response":{"id":"071-B-ZVNM273I","account_name":"Test
        name","account_number":"012345678","bsb":"123-123","created_at":"2018-05-08T21:06:31.879+10:00"},"errors":[],"test":true}'
    http_version: 
  recorded_at: Tue, 08 May 2018 11:06:31 GMT
- request:
    method: get
    uri: https://gateway.sandbox.fatzebra.com.au/v1.0/bank_accounts?limit=10&offets=0&test=true
    body:
      encoding: US-ASCII
      string: ''
    headers:
      Accept-Encoding:
      - gzip;q=1.0,deflate;q=0.6,identity;q=0.3
      Accept:
      - application/json
      User-Agent:
      - Ruby
      Host:
      - gateway.sandbox.fatzebra.com.au
      Authorization:
      - Basic VEVTVDpURVNU
      Content-Type:
      - application/json
  response:
    status:
      code: 200
      message: OK
    headers:
      Date:
      - Tue, 08 May 2018 11:06:31 GMT
      Content-Type:
      - application/json; charset=utf-8
      Transfer-Encoding:
      - chunked
      Connection:
      - keep-alive
      Status:
      - 200 OK
      Cache-Control:
      - no-store
      X-Request-Version:
      - 1.16.9-3186@7b619da
      Pragma:
      - no-cache
      X-Xss-Protection:
      - 1; mode=block
      X-Request-Id:
      - d3bc0f9b32ba0368c0153337
      X-Runtime:
      - '0.023642'
      X-Frame-Options:
      - SAMEORIGIN
      X-Content-Type-Options:
      - nosniff
      X-Backend:
      - sbox-priv-gateway-a
    body:
      encoding: UTF-8
      string: '{"successful":true,"response":[{"id":"071-B-ZVNM273I","account_name":"Test
        name","account_number":"012345678","bsb":"123-123","created_at":"2018-05-08T21:06:31.879+10:00"},{"id":"071-B-3G1M5QGK","account_name":"Test
        name","account_number":"012345678","bsb":"123-123","created_at":"2018-05-08T21:06:31.770+10:00"},{"id":"071-B-DUOBBRII","account_name":"Test
        name","account_number":"012345678","bsb":"123-123","created_at":"2018-05-08T21:06:31.659+10:00"},{"id":"071-B-NVSTWHOE","account_name":"Test
        name","account_number":"012345678","bsb":"123-123","created_at":"2018-05-08T21:06:31.475+10:00"},{"id":"071-B-PEZAJVBZ","account_name":"Test
        name","account_number":"012345678","bsb":"123-123","created_at":"2018-05-08T20:56:42.003+10:00"},{"id":"071-B-CZ9PN83H","account_name":"Test
        name","account_number":"012345678","bsb":"123-123","created_at":"2018-05-08T20:56:41.845+10:00"},{"id":"071-B-K2057ZSJ","account_name":"Test
        name","account_number":"012345678","bsb":"123-123","created_at":"2018-05-08T20:56:41.586+10:00"},{"id":"071-B-GTCEF3TK","account_name":"Test
        name","account_number":"012345678","bsb":"123-123","created_at":"2018-05-08T20:56:41.434+10:00"},{"id":"071-B-1SRW9EMX","account_name":"Test
        name","account_number":"012345678","bsb":"123-123","created_at":"2018-05-08T20:56:40.881+10:00"},{"id":"071-B-WCLO2GDW","account_name":"Test
        name","account_number":"012345678","bsb":"123-123","created_at":"2018-05-08T20:56:40.767+10:00"}],"errors":[],"test":true,"records":10,"total_records":692,"page":1,"total_pages":70}'
    http_version: 
  recorded_at: Tue, 08 May 2018 11:06:32 GMT
recorded_with: VCR 3.0.3
