---
http_interactions:
- request:
    method: get
    uri: https://gateway.sandbox.fatzebra.com.au/v1.0/batches?limit=10&offets=0&test=true
    body:
      encoding: US-ASCII
      string: ''
    headers:
      Accept-Encoding:
      - gzip;q=1.0,deflate;q=0.6,identity;q=0.3
      Accept:
      - application/json
      User-Agent:
      - Ruby
      Host:
      - gateway.sandbox.fatzebra.com.au
      Authorization:
      - Basic VEVTVDpURVNU
      Content-Type:
      - application/json
  response:
    status:
      code: 200
      message: OK
    headers:
      Date:
      - Tue, 08 May 2018 11:06:34 GMT
      Content-Type:
      - application/json; charset=utf-8
      Transfer-Encoding:
      - chunked
      Connection:
      - keep-alive
      Status:
      - 200 OK
      Cache-Control:
      - no-store
      X-Request-Version:
      - 1.16.9-3186@7b619da
      Pragma:
      - no-cache
      X-Xss-Protection:
      - 1; mode=block
      X-Request-Id:
      - 45cdc26110331bd051984c6e
      X-Runtime:
      - '0.023845'
      X-Frame-Options:
      - SAMEORIGIN
      X-Content-Type-Options:
      - nosniff
      X-Backend:
      - sbox-priv-gateway-a
    body:
      encoding: UTF-8
      string: '{"successful":true,"response":[{"id":"071-BF-PGGSPBF1","filename":"BATCH-v1-PURCHASE-TEST-20180101-test4.csv","created_at":"2018-01-30T01:58:52.963+11:00","process_date":"2018-01-01","start_date":null,"completed_date":null,"status":"Error","type":"PURCHASE","reference":"test4"},{"id":"071-BF-68TU3VJM","filename":"BATCH-v1-PURCHASE-20170712-123456789012348.csv","created_at":"2017-07-12T15:49:49.589+10:00","process_date":"2017-07-12","start_date":"2017-07-12","completed_date":"2017-07-12","status":"Completed","type":"PURCHASE","reference":"123456789012348"},{"id":"071-BF-K6GJ83S8","filename":"BATCH-v1-PURCHASE-TEST-20180101-test4.csv","created_at":"2018-01-30T17:03:03.954+11:00","process_date":"2018-01-01","start_date":null,"completed_date":null,"status":"Error","type":"PURCHASE","reference":"test4"},{"id":"071-BF-DBLTEHWC","filename":"BATCH-v1-PURCHASE-TEST-20180101-test4.csv","created_at":"2018-01-30T17:19:48.197+11:00","process_date":"2018-01-01","start_date":null,"completed_date":null,"status":"Error","type":"PURCHASE","reference":"test4"},{"id":"071-BF-Q0TVWI7K","filename":"BATCH-v1-PURCHASE-20170714-123456789012347.csv","created_at":"2017-07-14T10:42:55.900+10:00","process_date":"2017-07-14","start_date":"2017-07-14","completed_date":"2017-07-14","status":"Completed","type":"PURCHASE","reference":"123456789012347"},{"id":"071-BF-IX8LXHTQ","filename":"BATCH-v1-PURCHASE-TEST-20180419-260418121819.csv","created_at":"2018-04-26T12:18:20.462+10:00","process_date":"2018-04-19","start_date":"2018-04-26","completed_date":"2018-04-26","status":"Completed","type":"PURCHASE","reference":"260418121819"},{"id":"071-BF-S6XLIU6T","filename":"BATCH-v1-PURCHASE-TEST-20170904-be1daf085df093e9d528cc2f411c89dc.csv","created_at":"2017-09-04T12:15:40.327+10:00","process_date":"2017-09-04","start_date":null,"completed_date":null,"status":"Error","type":"PURCHASE","reference":"be1daf085df093e9d528cc2f411c89dc"},{"id":"071-BF-5VS9XO3D","filename":"BATCH-v1-PURCHASE-TEST-20170904-866b354006832e029b63b1d14d4c8c45.csv","created_at":"2017-09-04T12:15:40.488+10:00","process_date":"2017-09-04","start_date":null,"completed_date":null,"status":"Error","type":"PURCHASE","reference":"866b354006832e029b63b1d14d4c8c45"},{"id":"071-BF-OGKT1JOY","filename":"BATCH-v1-PURCHASE-TEST-20170904-36f791948f5f4d4f355bdf7afdbb6c4f.csv","created_at":"2017-09-04T12:15:40.708+10:00","process_date":"2017-09-04","start_date":null,"completed_date":null,"status":"Error","type":"PURCHASE","reference":"36f791948f5f4d4f355bdf7afdbb6c4f"},{"id":"071-BF-PVPKXZUC","filename":"BATCH-v1-PURCHASE-TEST-20180101-test4.csv","created_at":"2018-01-30T18:40:36.351+11:00","process_date":"2018-01-01","start_date":null,"completed_date":null,"status":"Error","type":"PURCHASE","reference":"test4"}],"errors":[],"test":true,"records":10,"total_records":1927,"page":1,"total_pages":193}'
    http_version: 
  recorded_at: Tue, 08 May 2018 11:06:34 GMT
recorded_with: VCR 3.0.3
