---
http_interactions:
- request:
    method: post
    uri: https://gateway.sandbox.fatzebra.com.au/v1.0/direct_credits
    body:
      encoding: UTF-8
      string: '{"description":"Confirmation","amount":42,"bsb":"123-123","account_name":"Test","account_number":"012345678","test":true}'
    headers:
      Accept-Encoding:
      - gzip;q=1.0,deflate;q=0.6,identity;q=0.3
      Accept:
      - application/json
      User-Agent:
      - Ruby
      Authorization:
      - Basic VEVTVDpURVNU
      Content-Type:
      - application/json
  response:
    status:
      code: 201
      message: Created
    headers:
      Date:
      - Tue, 08 May 2018 11:06:49 GMT
      Content-Type:
      - application/json; charset=utf-8
      Transfer-Encoding:
      - chunked
      Connection:
      - keep-alive
      Status:
      - 201 Created
      Cache-Control:
      - no-store
      X-Request-Version:
      - 1.16.9-3186@7b619da
      Pragma:
      - no-cache
      X-Xss-Protection:
      - 1; mode=block
      X-Request-Id:
      - ac59617296d988a091f5f844
      X-Runtime:
      - '0.043735'
      X-Frame-Options:
      - SAMEORIGIN
      X-Content-Type-Options:
      - nosniff
      X-Backend:
      - sbox-priv-gateway-a
    body:
      encoding: UTF-8
      string: '{"successful":true,"response":{"id":"071-DC-CC6LX8M6","amount":42.0,"bsb":"123-123","account_number":"012345678","account_name":"Test","description":"Confirmation","reference":"071-DC-CC6LX8M6","date":"2018-05-09","process_date":null,"status":"New","result":null,"metadata":null},"errors":[],"test":true}'
    http_version: 
  recorded_at: Tue, 08 May 2018 11:06:49 GMT
- request:
    method: post
    uri: https://gateway.sandbox.fatzebra.com.au/v1.0/direct_credits
    body:
      encoding: UTF-8
      string: '{"description":"Confirmation","amount":42,"bsb":"123-123","account_name":"Test","account_number":"012345678","test":true}'
    headers:
      Accept-Encoding:
      - gzip;q=1.0,deflate;q=0.6,identity;q=0.3
      Accept:
      - application/json
      User-Agent:
      - Ruby
      Authorization:
      - Basic VEVTVDpURVNU
      Content-Type:
      - application/json
  response:
    status:
      code: 201
      message: Created
    headers:
      Date:
      - Tue, 08 May 2018 11:06:49 GMT
      Content-Type:
      - application/json; charset=utf-8
      Transfer-Encoding:
      - chunked
      Connection:
      - keep-alive
      Status:
      - 201 Created
      Cache-Control:
      - no-store
      X-Request-Version:
      - 1.16.9-3186@7b619da
      Pragma:
      - no-cache
      X-Xss-Protection:
      - 1; mode=block
      X-Request-Id:
      - 11c9ba8a92184d2c45dd98b5
      X-Runtime:
      - '0.036649'
      X-Frame-Options:
      - SAMEORIGIN
      X-Content-Type-Options:
      - nosniff
      X-Backend:
      - sbox-priv-gateway-a
    body:
      encoding: UTF-8
      string: '{"successful":true,"response":{"id":"071-DC-JATOPKWY","amount":42.0,"bsb":"123-123","account_number":"012345678","account_name":"Test","description":"Confirmation","reference":"071-DC-JATOPKWY","date":"2018-05-09","process_date":null,"status":"New","result":null,"metadata":null},"errors":[],"test":true}'
    http_version: 
  recorded_at: Tue, 08 May 2018 11:06:49 GMT
- request:
    method: get
    uri: https://gateway.sandbox.fatzebra.com.au/v1.0/direct_credits?limit=10&offets=0&test=true
    body:
      encoding: US-ASCII
      string: ''
    headers:
      Accept-Encoding:
      - gzip;q=1.0,deflate;q=0.6,identity;q=0.3
      Accept:
      - application/json
      User-Agent:
      - Ruby
      Host:
      - gateway.sandbox.fatzebra.com.au
      Authorization:
      - Basic VEVTVDpURVNU
      Content-Type:
      - application/json
  response:
    status:
      code: 200
      message: OK
    headers:
      Date:
      - Tue, 08 May 2018 11:06:49 GMT
      Content-Type:
      - application/json; charset=utf-8
      Transfer-Encoding:
      - chunked
      Connection:
      - keep-alive
      Status:
      - 200 OK
      Cache-Control:
      - no-store
      X-Request-Version:
      - 1.16.9-3186@7b619da
      Pragma:
      - no-cache
      X-Xss-Protection:
      - 1; mode=block
      X-Request-Id:
      - 2d389d50847dabaa90ecc404
      X-Runtime:
      - '0.016574'
      X-Frame-Options:
      - SAMEORIGIN
      X-Content-Type-Options:
      - nosniff
      X-Backend:
      - sbox-priv-gateway-a
    body:
      encoding: UTF-8
      string: '{"successful":true,"response":[{"id":"071-DC-JATOPKWY","amount":42.0,"bsb":"123-123","account_number":"012345678","account_name":"Test","description":"Confirmation","reference":"071-DC-JATOPKWY","date":"2018-05-09","process_date":null,"status":"New","result":null,"metadata":null},{"id":"071-DC-CC6LX8M6","amount":42.0,"bsb":"123-123","account_number":"012345678","account_name":"Test","description":"Confirmation","reference":"071-DC-CC6LX8M6","date":"2018-05-09","process_date":null,"status":"New","result":null,"metadata":null},{"id":"071-DC-F4ZD1A5E","amount":42.0,"bsb":"123-123","account_number":"012345678","account_name":"Test","description":"Confirmation","reference":"071-DC-F4ZD1A5E","date":"2018-05-09","process_date":null,"status":"New","result":null,"metadata":null},{"id":"071-DC-583FN5H0","amount":42.0,"bsb":"123-123","account_number":"012345678","account_name":"Test","description":"Confirmation","reference":"071-DC-583FN5H0","date":"2018-05-09","process_date":null,"status":"New","result":null,"metadata":null},{"id":"071-DC-VY7HU6VS","amount":42.42,"bsb":"123-123","account_number":"012345678","account_name":"Test","description":"Confirmation","reference":"071-DC-VY7HU6VS","date":"2018-05-09","process_date":null,"status":"New","result":null,"metadata":null},{"id":"071-DC-89EQIIB","amount":42.0,"bsb":"123-123","account_number":"012345678","account_name":"Test","description":"Confirmation","reference":"071-DC-89EQIIB","date":"2018-05-09","process_date":null,"status":"New","result":null,"metadata":null},{"id":"071-DC-R3X93BMI","amount":42.0,"bsb":"123-123","account_number":"012345678","account_name":"Test","description":"Confirmation","reference":"071-DC-R3X93BMI","date":"2018-05-09","process_date":null,"status":"New","result":null,"metadata":null},{"id":"071-DC-CSLWU2JW","amount":42.0,"bsb":"123-123","account_number":"012345678","account_name":"Test","description":"Confirmation","reference":"071-DC-CSLWU2JW","date":"2018-05-09","process_date":null,"status":"New","result":null,"metadata":null},{"id":"071-DC-OURUQ3A0","amount":42.0,"bsb":"123-123","account_number":"012345678","account_name":"Test","description":"Confirmation","reference":"071-DC-OURUQ3A0","date":"2018-05-09","process_date":null,"status":"New","result":null,"metadata":null},{"id":"071-DC-AAWHLCSF","amount":42.0,"bsb":"123-123","account_number":"012345678","account_name":"Test","description":"Confirmation","reference":"071-DC-AAWHLCSF","date":"2018-05-09","process_date":null,"status":"Deleted","result":null,"metadata":null}],"errors":[],"test":true,"records":10,"total_records":484,"page":1,"total_pages":49}'
    http_version: 
  recorded_at: Tue, 08 May 2018 11:06:49 GMT
recorded_with: VCR 3.0.3
