---
http_interactions:
- request:
    method: post
    uri: https://gateway.sandbox.fatzebra.com.au/v1.0/direct_credits
    body:
      encoding: UTF-8
      string: '{"description":"Confirmation","amount":42.0,"bsb":"123-123","account_name":"Test","account_number":"012345678","test":true}'
    headers:
      Accept-Encoding:
      - gzip;q=1.0,deflate;q=0.6,identity;q=0.3
      Accept:
      - application/json
      User-Agent:
      - Ruby
      Authorization:
      - Basic VEVTVDpURVNU
      Content-Type:
      - application/json
  response:
    status:
      code: 201
      message: Created
    headers:
      Date:
      - Mon, 29 Apr 2019 09:16:54 GMT
      Content-Type:
      - application/json; charset=utf-8
      Transfer-Encoding:
      - chunked
      Connection:
      - keep-alive
      Status:
      - 201 Created
      Cache-Control:
      - no-store
      X-Request-Version:
      - 1.16.9-3941@c1d8236
      X-Runtime:
      - '0.046284'
      Pragma:
      - no-cache
      X-Request-Id:
      - 96e74aab5ecf4c704fc546bd
      X-Backend:
      - sbox-priv-gateway-a
    body:
      encoding: UTF-8
      string: '{"successful":true,"response":{"id":"071-DC-FY8B6V3","amount":42.0,"bsb":"123-123","account_number":"012345678","account_name":"Test","description":"Confirmation","reference":"071-DC-FY8B6V3","date":"2019-04-30","process_date":null,"status":"New","result":null,"metadata":null},"errors":[],"test":true}'
    http_version: 
  recorded_at: Mon, 29 Apr 2019 09:16:54 GMT
- request:
    method: post
    uri: https://gateway.sandbox.fatzebra.com.au/v1.0/direct_credits
    body:
      encoding: UTF-8
      string: '{"description":"Confirmation","amount":42.0,"bsb":"123-123","account_name":"Test","account_number":"012345678","test":true}'
    headers:
      Accept-Encoding:
      - gzip;q=1.0,deflate;q=0.6,identity;q=0.3
      Accept:
      - application/json
      User-Agent:
      - Ruby
      Authorization:
      - Basic VEVTVDpURVNU
      Content-Type:
      - application/json
  response:
    status:
      code: 201
      message: Created
    headers:
      Date:
      - Mon, 29 Apr 2019 09:16:54 GMT
      Content-Type:
      - application/json; charset=utf-8
      Transfer-Encoding:
      - chunked
      Connection:
      - keep-alive
      Status:
      - 201 Created
      Cache-Control:
      - no-store
      X-Request-Version:
      - 1.16.9-3941@c1d8236
      X-Runtime:
      - '0.061947'
      Pragma:
      - no-cache
      X-Request-Id:
      - b3b82c08bb54168012a4bf5c
      X-Backend:
      - sbox-priv-gateway-a
    body:
      encoding: UTF-8
      string: '{"successful":true,"response":{"id":"071-DC-UVAFKRJ2","amount":42.0,"bsb":"123-123","account_number":"012345678","account_name":"Test","description":"Confirmation","reference":"071-DC-UVAFKRJ2","date":"2019-04-30","process_date":null,"status":"New","result":null,"metadata":null},"errors":[],"test":true}'
    http_version: 
  recorded_at: Mon, 29 Apr 2019 09:16:54 GMT
- request:
    method: get
    uri: https://gateway.sandbox.fatzebra.com.au/v1.0/direct_credits?limit=10&offset=0&test=true
    body:
      encoding: US-ASCII
      string: ''
    headers:
      Accept-Encoding:
      - gzip;q=1.0,deflate;q=0.6,identity;q=0.3
      Accept:
      - application/json
      User-Agent:
      - Ruby
      Host:
      - gateway.sandbox.fatzebra.com.au
      Authorization:
      - Basic VEVTVDpURVNU
      Content-Type:
      - application/json
  response:
    status:
      code: 200
      message: OK
    headers:
      Date:
      - Mon, 29 Apr 2019 09:16:54 GMT
      Content-Type:
      - application/json; charset=utf-8
      Transfer-Encoding:
      - chunked
      Connection:
      - keep-alive
      Status:
      - 200 OK
      Cache-Control:
      - no-store
      X-Request-Version:
      - 1.16.9-3941@c1d8236
      X-Runtime:
      - '0.033381'
      Pragma:
      - no-cache
      X-Request-Id:
      - 57e57487f429fd667c1ca224
      X-Backend:
      - sbox-priv-gateway-a
    body:
      encoding: UTF-8
      string: '{"successful":true,"response":[{"id":"071-DC-UVAFKRJ2","amount":42.0,"bsb":"123-123","account_number":"012345678","account_name":"Test","description":"Confirmation","reference":"071-DC-UVAFKRJ2","date":"2019-04-30","process_date":null,"status":"New","result":null,"metadata":null},{"id":"071-DC-FY8B6V3","amount":42.0,"bsb":"123-123","account_number":"012345678","account_name":"Test","description":"Confirmation","reference":"071-DC-FY8B6V3","date":"2019-04-30","process_date":null,"status":"New","result":null,"metadata":null},{"id":"071-DC-4JSZRIZ6","amount":42.0,"bsb":"123-123","account_number":"012345678","account_name":"Test","description":"Confirmation","reference":"071-DC-4JSZRIZ6","date":"2019-04-30","process_date":null,"status":"New","result":null,"metadata":null},{"id":"071-DC-6F2IQ4TY","amount":42.0,"bsb":"123-123","account_number":"012345678","account_name":"Test","description":"Confirmation","reference":"071-DC-6F2IQ4TY","date":"2019-04-30","process_date":null,"status":"New","result":null,"metadata":null},{"id":"071-DC-Y07D03WQ","amount":42.0,"bsb":"123-123","account_number":"012345678","account_name":"Test","description":"Confirmation","reference":"071-DC-Y07D03WQ","date":"2019-04-30","process_date":null,"status":"New","result":null,"metadata":null},{"id":"071-DC-GHU3RL7S","amount":42.0,"bsb":"123-123","account_number":"012345678","account_name":"Test","description":"Confirmation","reference":"071-DC-GHU3RL7S","date":"2019-04-30","process_date":null,"status":"New","result":null,"metadata":null},{"id":"071-DC-PDWJGQ2K","amount":42.0,"bsb":"123-123","account_number":"012345678","account_name":"Test","description":"Confirmation","reference":"071-DC-PDWJGQ2K","date":"2019-04-30","process_date":null,"status":"New","result":null,"metadata":null},{"id":"071-DC-13GDTHOR","amount":42.42,"bsb":"123-123","account_number":"012345678","account_name":"Test","description":"Confirmation","reference":"071-DC-13GDTHOR","date":"2019-04-30","process_date":null,"status":"New","result":null,"metadata":null},{"id":"071-DC-DCBB87CN","amount":42.0,"bsb":"123-123","account_number":"012345678","account_name":"Test","description":"Confirmation","reference":"071-DC-DCBB87CN","date":"2019-04-30","process_date":null,"status":"New","result":null,"metadata":null},{"id":"071-DC-OU02RPD8","amount":42.0,"bsb":"123-123","account_number":"012345678","account_name":"Test","description":"Confirmation","reference":"071-DC-OU02RPD8","date":"2019-04-30","process_date":null,"status":"New","result":null,"metadata":null}],"errors":[],"test":true,"records":10,"total_records":804,"page":0,"total_pages":81}'
    http_version: 
  recorded_at: Mon, 29 Apr 2019 09:16:54 GMT
recorded_with: VCR 3.0.3
