---
http_interactions:
- request:
    method: post
    uri: https://gateway.sandbox.fatzebra.com.au/v1.0/direct_debits
    body:
      encoding: UTF-8
      string: '{"description":"Confirmation","amount":42.0,"bsb":"123-123","account_name":"Test","account_number":"012345678","test":true}'
    headers:
      Accept-Encoding:
      - gzip;q=1.0,deflate;q=0.6,identity;q=0.3
      Accept:
      - application/json
      User-Agent:
      - Ruby
      Authorization:
      - Basic VEVTVDpURVNU
      Content-Type:
      - application/json
  response:
    status:
      code: 201
      message: Created
    headers:
      Date:
      - Mon, 29 Apr 2019 09:17:00 GMT
      Content-Type:
      - application/json; charset=utf-8
      Transfer-Encoding:
      - chunked
      Connection:
      - keep-alive
      Status:
      - 201 Created
      Cache-Control:
      - no-store
      X-Request-Version:
      - 1.16.9-3941@c1d8236
      X-Runtime:
      - '0.041239'
      Pragma:
      - no-cache
      X-Request-Id:
      - 9debecd103db939f71b5753d
      X-Backend:
      - sbox-priv-gateway-a
    body:
      encoding: UTF-8
      string: '{"successful":true,"response":{"id":"071-DD-4UCBFBXC","amount":42.0,"bsb":"123-123","account_number":"012345678","account_name":"Test","description":"Confirmation","reference":"071-DD-4UCBFBXC","date":"2019-04-30","process_date":null,"status":"New","result":null,"metadata":null},"errors":[],"test":true}'
    http_version: 
  recorded_at: Mon, 29 Apr 2019 09:17:00 GMT
- request:
    method: post
    uri: https://gateway.sandbox.fatzebra.com.au/v1.0/direct_debits
    body:
      encoding: UTF-8
      string: '{"description":"Confirmation","amount":42.0,"bsb":"123-123","account_name":"Test","account_number":"012345678","test":true}'
    headers:
      Accept-Encoding:
      - gzip;q=1.0,deflate;q=0.6,identity;q=0.3
      Accept:
      - application/json
      User-Agent:
      - Ruby
      Authorization:
      - Basic VEVTVDpURVNU
      Content-Type:
      - application/json
  response:
    status:
      code: 201
      message: Created
    headers:
      Date:
      - Mon, 29 Apr 2019 09:17:00 GMT
      Content-Type:
      - application/json; charset=utf-8
      Transfer-Encoding:
      - chunked
      Connection:
      - keep-alive
      Status:
      - 201 Created
      Cache-Control:
      - no-store
      X-Request-Version:
      - 1.16.9-3941@c1d8236
      X-Runtime:
      - '0.046735'
      Pragma:
      - no-cache
      X-Request-Id:
      - e5e6d45c4ac9f6ecc27ba8c8
      X-Backend:
      - sbox-priv-gateway-a
    body:
      encoding: UTF-8
      string: '{"successful":true,"response":{"id":"071-DD-UCLRCP8I","amount":42.0,"bsb":"123-123","account_number":"012345678","account_name":"Test","description":"Confirmation","reference":"071-DD-UCLRCP8I","date":"2019-04-30","process_date":null,"status":"New","result":null,"metadata":null},"errors":[],"test":true}'
    http_version: 
  recorded_at: Mon, 29 Apr 2019 09:17:00 GMT
- request:
    method: get
    uri: https://gateway.sandbox.fatzebra.com.au/v1.0/direct_debits?limit=10&offset=0&test=true
    body:
      encoding: US-ASCII
      string: ''
    headers:
      Accept-Encoding:
      - gzip;q=1.0,deflate;q=0.6,identity;q=0.3
      Accept:
      - application/json
      User-Agent:
      - Ruby
      Host:
      - gateway.sandbox.fatzebra.com.au
      Authorization:
      - Basic VEVTVDpURVNU
      Content-Type:
      - application/json
  response:
    status:
      code: 200
      message: OK
    headers:
      Date:
      - Mon, 29 Apr 2019 09:17:00 GMT
      Content-Type:
      - application/json; charset=utf-8
      Transfer-Encoding:
      - chunked
      Connection:
      - keep-alive
      Status:
      - 200 OK
      Cache-Control:
      - no-store
      X-Request-Version:
      - 1.16.9-3941@c1d8236
      X-Runtime:
      - '0.032962'
      Pragma:
      - no-cache
      X-Request-Id:
      - adaedb804ad0d7d0e8896aec
      X-Backend:
      - sbox-priv-gateway-a
    body:
      encoding: UTF-8
      string: '{"successful":true,"response":[{"id":"071-DD-UCLRCP8I","amount":42.0,"bsb":"123-123","account_number":"012345678","account_name":"Test","description":"Confirmation","reference":"071-DD-UCLRCP8I","date":"2019-04-30","process_date":null,"status":"New","result":null,"metadata":null},{"id":"071-DD-4UCBFBXC","amount":42.0,"bsb":"123-123","account_number":"012345678","account_name":"Test","description":"Confirmation","reference":"071-DD-4UCBFBXC","date":"2019-04-30","process_date":null,"status":"New","result":null,"metadata":null},{"id":"071-DD-DKO3ROOU","amount":42.0,"bsb":"123-123","account_number":"012345678","account_name":"Test","description":"Confirmation","reference":"071-DD-DKO3ROOU","date":"2019-04-30","process_date":null,"status":"New","result":null,"metadata":null},{"id":"071-DD-DDPCOFS0","amount":42.0,"bsb":"123-123","account_number":"012345678","account_name":"Test","description":"Confirmation","reference":"071-DD-DDPCOFS0","date":"2019-04-30","process_date":null,"status":"New","result":null,"metadata":null},{"id":"071-DD-GOOH7XBB","amount":42.0,"bsb":"123-123","account_number":"012345678","account_name":"Test","description":"Confirmation","reference":"071-DD-GOOH7XBB","date":"2019-04-30","process_date":null,"status":"New","result":null,"metadata":null},{"id":"071-DD-SGHKW4JK","amount":42.0,"bsb":"123-123","account_number":"012345678","account_name":"Test","description":"Confirmation","reference":"071-DD-SGHKW4JK","date":"2019-04-30","process_date":null,"status":"New","result":null,"metadata":null},{"id":"071-DD-R9RJFC4O","amount":42.0,"bsb":"123-123","account_number":"012345678","account_name":"Test","description":"Confirmation","reference":"071-DD-R9RJFC4O","date":"2019-04-30","process_date":null,"status":"New","result":null,"metadata":null},{"id":"071-DD-29P42POQ","amount":42.42,"bsb":"123-123","account_number":"012345678","account_name":"Test","description":"Confirmation","reference":"071-DD-29P42POQ","date":"2019-04-30","process_date":null,"status":"New","result":null,"metadata":null},{"id":"071-DD-AN92IPK2","amount":42.0,"bsb":"123-123","account_number":"012345678","account_name":"Test","description":"Confirmation","reference":"071-DD-AN92IPK2","date":"2019-04-30","process_date":null,"status":"New","result":null,"metadata":null},{"id":"071-DD-ZJAB2HUC","amount":42.0,"bsb":"123-123","account_number":"012345678","account_name":"Test","description":"Confirmation","reference":"071-DD-ZJAB2HUC","date":"2019-04-30","process_date":null,"status":"New","result":null,"metadata":null}],"errors":[],"test":true,"records":10,"total_records":16741,"page":0,"total_pages":1675}'
    http_version: 
  recorded_at: Mon, 29 Apr 2019 09:17:00 GMT
recorded_with: VCR 3.0.3
