---
http_interactions:
- request:
    method: post
    uri: https://gateway.sandbox.fatzebra.com.au/v1.0/purchases
    body:
      encoding: UTF-8
      string: '{"amount":10000,"card_holder":"Matthew Savage","card_number":"5123456789012346","card_expiry":"02/2030","cvv":123,"reference":"ef70998cac76997587755df0089e497a-0","customer_ip":"1.2.3.4","currency":"AUD","test":true}'
    headers:
      Accept-Encoding:
      - gzip;q=1.0,deflate;q=0.6,identity;q=0.3
      Accept:
      - application/json
      User-Agent:
      - Ruby
      Authorization:
      - Basic VEVTVDpURVNU
      Content-Type:
      - application/json
  response:
    status:
      code: 200
      message: OK
    headers:
      Date:
      - Tue, 08 May 2018 11:07:25 GMT
      Content-Type:
      - application/json; charset=utf-8
      Transfer-Encoding:
      - chunked
      Connection:
      - keep-alive
      Status:
      - 200 OK
      Cache-Control:
      - no-store
      X-Request-Version:
      - 1.16.9-3186@7b619da
      Pragma:
      - no-cache
      X-Xss-Protection:
      - 1; mode=block
      X-Request-Id:
      - 1648ab302d1d3c98cb969f68
      X-Runtime:
      - '0.526579'
      X-Frame-Options:
      - SAMEORIGIN
      X-Content-Type-Options:
      - nosniff
      X-Backend:
      - sbox-priv-gateway-a
    body:
      encoding: UTF-8
      string: '{"successful":true,"response":{"authorization":"193617","id":"071-P-2K3SAIIK","card_number":"512345XXXXXX2346","card_holder":"Matthew
        Savage","card_expiry":"2030-02-28","card_token":"fke8eem4","card_type":"MasterCard","card_category":"Credit","card_subcategory":"Standard","amount":10000,"decimal_amount":100.0,"successful":true,"message":"Approved","reference":"ef70998cac76997587755df0089e497a-0","currency":"AUD","transaction_id":"071-P-2K3SAIIK","settlement_date":"2018-05-08","transaction_date":"2018-05-08T21:07:25.065+10:00","response_code":"00","captured":true,"captured_amount":10000,"rrn":"071P2K3SAIIK","cvv_match":"M","metadata":{},"addendum_data":{}},"errors":[],"test":true}'
    http_version: 
  recorded_at: Tue, 08 May 2018 11:07:25 GMT
- request:
    method: post
    uri: https://gateway.sandbox.fatzebra.com.au/v1.0/purchases
    body:
      encoding: UTF-8
      string: '{"amount":10000,"card_holder":"Matthew Savage","card_number":"5123456789012346","card_expiry":"02/2030","cvv":123,"reference":"db61b92175e02e648d926221f499034e-1","customer_ip":"1.2.3.4","currency":"AUD","test":true}'
    headers:
      Accept-Encoding:
      - gzip;q=1.0,deflate;q=0.6,identity;q=0.3
      Accept:
      - application/json
      User-Agent:
      - Ruby
      Authorization:
      - Basic VEVTVDpURVNU
      Content-Type:
      - application/json
  response:
    status:
      code: 200
      message: OK
    headers:
      Date:
      - Tue, 08 May 2018 11:07:25 GMT
      Content-Type:
      - application/json; charset=utf-8
      Transfer-Encoding:
      - chunked
      Connection:
      - keep-alive
      Status:
      - 200 OK
      Cache-Control:
      - no-store
      X-Request-Version:
      - 1.16.9-3186@7b619da
      Pragma:
      - no-cache
      X-Xss-Protection:
      - 1; mode=block
      X-Request-Id:
      - 8e6432a48045aaa109b2b0e3
      X-Runtime:
      - '0.539945'
      X-Frame-Options:
      - SAMEORIGIN
      X-Content-Type-Options:
      - nosniff
      X-Backend:
      - sbox-priv-gateway-a
    body:
      encoding: UTF-8
      string: '{"successful":true,"response":{"authorization":"872396","id":"071-P-NMJ349DK","card_number":"512345XXXXXX2346","card_holder":"Matthew
        Savage","card_expiry":"2030-02-28","card_token":"fke8vhvk","card_type":"MasterCard","card_category":"Credit","card_subcategory":"Standard","amount":10000,"decimal_amount":100.0,"successful":true,"message":"Approved","reference":"db61b92175e02e648d926221f499034e-1","currency":"AUD","transaction_id":"071-P-NMJ349DK","settlement_date":"2018-05-08","transaction_date":"2018-05-08T21:07:25.789+10:00","response_code":"00","captured":true,"captured_amount":10000,"rrn":"071PNMJ349DK","cvv_match":"M","metadata":{},"addendum_data":{}},"errors":[],"test":true}'
    http_version: 
  recorded_at: Tue, 08 May 2018 11:07:25 GMT
- request:
    method: get
    uri: https://gateway.sandbox.fatzebra.com.au/v1.0/purchases?from=2017/07/03&limit=10&offets=0&test=true
    body:
      encoding: US-ASCII
      string: ''
    headers:
      Accept-Encoding:
      - gzip;q=1.0,deflate;q=0.6,identity;q=0.3
      Accept:
      - application/json
      User-Agent:
      - Ruby
      Host:
      - gateway.sandbox.fatzebra.com.au
      Authorization:
      - Basic VEVTVDpURVNU
      Content-Type:
      - application/json
  response:
    status:
      code: 200
      message: OK
    headers:
      Date:
      - Tue, 08 May 2018 11:07:26 GMT
      Content-Type:
      - application/json; charset=utf-8
      Transfer-Encoding:
      - chunked
      Connection:
      - keep-alive
      Status:
      - 200 OK
      Cache-Control:
      - no-store
      X-Request-Version:
      - 1.16.9-3186@7b619da
      Pragma:
      - no-cache
      X-Xss-Protection:
      - 1; mode=block
      X-Request-Id:
      - 601c568731b289e0502fce5d
      X-Runtime:
      - '0.295922'
      X-Frame-Options:
      - SAMEORIGIN
      X-Content-Type-Options:
      - nosniff
      X-Backend:
      - sbox-priv-gateway-a
    body:
      encoding: UTF-8
      string: '{"successful":true,"response":[{"authorization":"872396","id":"071-P-NMJ349DK","card_number":"512345XXXXXX2346","card_holder":"Matthew
        Savage","card_expiry":"2030-02-28","card_token":"fke8vhvk","card_type":"MasterCard","card_category":"Credit","card_subcategory":"Standard","amount":10000,"decimal_amount":100.0,"successful":true,"message":"Approved","reference":"db61b92175e02e648d926221f499034e-1","currency":"AUD","transaction_id":"071-P-NMJ349DK","settlement_date":"2018-05-08","transaction_date":"2018-05-08T21:07:25.789+10:00","response_code":"00","captured":true,"captured_amount":10000,"rrn":"071PNMJ349DK","cvv_match":"M","metadata":{},"addendum_data":{}},{"authorization":"193617","id":"071-P-2K3SAIIK","card_number":"512345XXXXXX2346","card_holder":"Matthew
        Savage","card_expiry":"2030-02-28","card_token":"fke8eem4","card_type":"MasterCard","card_category":"Credit","card_subcategory":"Standard","amount":10000,"decimal_amount":100.0,"successful":true,"message":"Approved","reference":"ef70998cac76997587755df0089e497a-0","currency":"AUD","transaction_id":"071-P-2K3SAIIK","settlement_date":"2018-05-08","transaction_date":"2018-05-08T21:07:25.065+10:00","response_code":"00","captured":true,"captured_amount":10000,"rrn":"071P2K3SAIIK","cvv_match":"M","metadata":{},"addendum_data":{}},{"authorization":"502968","id":"071-P-XNU8F6QJ","card_number":"512345XXXXXX2346","card_holder":"Matthew
        Savage","card_expiry":"2030-02-28","card_token":"fke8m1qx","card_type":"MasterCard","card_category":"Credit","card_subcategory":"Standard","amount":10000,"decimal_amount":100.0,"successful":true,"message":"Approved","reference":"37fe107e773b52af1d6e67bb8845c870-1","currency":"AUD","transaction_id":"071-P-XNU8F6QJ","settlement_date":"2018-05-08","transaction_date":"2018-05-08T21:07:24.005+10:00","response_code":"00","captured":true,"captured_amount":10000,"rrn":"071PXNU8F6QJ","cvv_match":"M","metadata":{},"addendum_data":{}},{"authorization":"628349","id":"071-P-SJVI343H","card_number":"512345XXXXXX2346","card_holder":"Matthew
        Savage","card_expiry":"2030-02-28","card_token":"fke8dl04","card_type":"MasterCard","card_category":"Credit","card_subcategory":"Standard","amount":10000,"decimal_amount":100.0,"successful":true,"message":"Approved","reference":"5d2babe08667ec4bf70ac4f451cbc67a-0","currency":"AUD","transaction_id":"071-P-SJVI343H","settlement_date":"2018-05-08","transaction_date":"2018-05-08T21:07:23.306+10:00","response_code":"00","captured":true,"captured_amount":10000,"rrn":"071PSJVI343H","cvv_match":"M","metadata":{},"addendum_data":{}},{"authorization":"433556","id":"071-P-QYNJ2TWP","card_number":"512345XXXXXX2346","card_holder":"Matthew
        Savage","card_expiry":"2030-02-28","card_token":"fke8uqfy","card_type":"MasterCard","card_category":"Credit","card_subcategory":"Standard","amount":10000,"decimal_amount":100.0,"successful":true,"message":"Approved","reference":"5164dd80ed56b30e472cd076babc1957","currency":"AUD","transaction_id":"071-P-QYNJ2TWP","settlement_date":"2018-05-08","transaction_date":"2018-05-08T21:07:22.585+10:00","response_code":"00","captured":true,"captured_amount":10000,"rrn":"071PQYNJ2TWP","cvv_match":"M","metadata":{},"addendum_data":{}},{"authorization":"571005","id":"071-P-YJUZ48EG","card_number":"512345XXXXXX2346","card_holder":"Matthew
        Savage","card_expiry":"2030-02-28","card_token":"fke8akd7","card_type":"MasterCard","card_category":"Credit","card_subcategory":"Standard","amount":10000,"decimal_amount":100.0,"successful":true,"message":"Approved","reference":"84652f9fb58dcba409c7e96ea51e19f5","currency":"AUD","transaction_id":"071-P-YJUZ48EG","settlement_date":"2018-05-08","transaction_date":"2018-05-08T21:07:21.918+10:00","response_code":"00","captured":true,"captured_amount":10000,"rrn":"071PYJUZ48EG","cvv_match":"M","metadata":{},"addendum_data":{}},{"authorization":"456775","id":"071-P-XWQOZDKT","card_number":"512345XXXXXX2346","card_holder":"Matthew
        Savage","card_expiry":"2030-02-28","card_token":"fke8ld74","card_type":"MasterCard","card_category":"Credit","card_subcategory":"Standard","amount":10000,"decimal_amount":100.0,"successful":true,"message":"Approved","reference":"5fcc72968fec97615f0ca98661d23e11","currency":"AUD","transaction_id":"071-P-XWQOZDKT","settlement_date":"2018-05-08","transaction_date":"2018-05-08T21:07:21.152+10:00","response_code":"00","captured":true,"captured_amount":10000,"rrn":"071PXWQOZDKT","cvv_match":"M","metadata":{},"addendum_data":{}},{"authorization":"549687","id":"071-P-YY1BRYOB","card_number":"512345XXXXXX2346","card_holder":"Matthew
        Savage","card_expiry":"2030-02-28","card_token":"fke85e12","card_type":"MasterCard","card_category":"Credit","card_subcategory":"Standard","amount":10000,"decimal_amount":100.0,"successful":true,"message":"Approved","reference":"141facfb3d225f9bfff17c619f924e07","currency":"AUD","transaction_id":"071-P-YY1BRYOB","settlement_date":"2018-05-08","transaction_date":"2018-05-08T21:07:20.415+10:00","response_code":"00","captured":true,"captured_amount":10000,"rrn":"071PYY1BRYOB","cvv_match":"M","metadata":{},"addendum_data":{}},{"authorization":"443997","id":"071-P-L9T9CEH6","card_number":"512345XXXXXX2346","card_holder":"Matthew
        Savage","card_expiry":"2030-02-28","card_token":"fke8tjxy","card_type":"MasterCard","card_category":"Credit","card_subcategory":"Standard","amount":10000,"decimal_amount":100.0,"successful":true,"message":"Approved","reference":"94aec2f3b1995cd3a11e3154059da890","currency":"AUD","transaction_id":"071-P-L9T9CEH6","settlement_date":"2018-05-08","transaction_date":"2018-05-08T21:07:18.748+10:00","response_code":"00","captured":true,"captured_amount":10000,"rrn":"071PL9T9CEH6","cvv_match":"M","metadata":{},"addendum_data":{}},{"authorization":"134552","id":"071-P-U5QMNFYL","card_number":"512345XXXXXX2346","card_holder":"Matthew
        Savage","card_expiry":"2030-02-28","card_token":"fke8njdc","card_type":"MasterCard","card_category":"Credit","card_subcategory":"Standard","amount":10000,"decimal_amount":100.0,"successful":true,"message":"Approved","reference":"e5e3e48fd20fbd80ff3117c25f487bd9","currency":"AUD","transaction_id":"071-P-U5QMNFYL","settlement_date":"2018-05-08","transaction_date":"2018-05-08T21:07:18.140+10:00","response_code":"00","captured":true,"captured_amount":10000,"rrn":"071PU5QMNFYL","cvv_match":"M","metadata":{},"addendum_data":{}}],"errors":[],"test":true,"records":10,"total_records":671089,"page":1,"total_pages":67109}'
    http_version: 
  recorded_at: Tue, 08 May 2018 11:07:26 GMT
recorded_with: VCR 3.0.3
