---
http_interactions:
- request:
    method: post
    uri: https://gateway.sandbox.fatzebra.com.au/v1.0/purchases
    body:
      encoding: UTF-8
      string: '{"amount":10000,"card_holder":"Matthew Savage","card_number":"5123456789012346","card_expiry":"02/2030","cvv":123,"reference":"500bc3154a25fcb135441a0bb37c8bd8-0","customer_ip":"1.2.3.4","currency":"AUD","test":true}'
    headers:
      Accept-Encoding:
      - gzip;q=1.0,deflate;q=0.6,identity;q=0.3
      Accept:
      - application/json
      User-Agent:
      - Ruby
      Authorization:
      - Basic VEVTVDpURVNU
      Content-Type:
      - application/json
  response:
    status:
      code: 200
      message: OK
    headers:
      Date:
      - Wed, 05 Jul 2017 05:45:11 GMT
      Content-Type:
      - application/json; charset=utf-8
      Transfer-Encoding:
      - chunked
      Connection:
      - keep-alive
      Status:
      - 200 OK
      Cache-Control:
      - no-store
      X-Request-Version:
      - 1.19.41
      Pragma:
      - no-cache
      X-Request-Id:
      - 6f1bd284817b5b6732030e4c57b0574c
      X-Runtime:
      - '0.311365'
      X-Rack-Cache:
      - invalidate, pass
      X-Backend:
      - sbox-priv-gateway-a
    body:
      encoding: UTF-8
      string: '{"successful":true,"response":{"authorization":"881799","id":"071-P-56YB62C8","card_number":"512345XXXXXX2346","card_holder":"Matthew
        Savage","card_expiry":"2030-02-28","card_token":"fke86c5u","card_type":"MasterCard","card_category":"Credit","card_subcategory":"Standard","amount":10000,"decimal_amount":100.0,"successful":true,"message":"Approved","reference":"500bc3154a25fcb135441a0bb37c8bd8-0","currency":"AUD","transaction_id":"071-P-56YB62C8","settlement_date":"2017-07-05","transaction_date":"2017-07-05T15:45:11+10:00","response_code":"00","captured":true,"captured_amount":10000,"rrn":"071P56YB62C8","cvv_match":"M","metadata":{},"addendum_data":{}},"errors":[],"test":true}'
    http_version: 
  recorded_at: Wed, 05 Jul 2017 05:45:11 GMT
- request:
    method: post
    uri: https://gateway.sandbox.fatzebra.com.au/v1.0/purchases
    body:
      encoding: UTF-8
      string: '{"amount":10000,"card_holder":"Matthew Savage","card_number":"5123456789012346","card_expiry":"02/2030","cvv":123,"reference":"34d2e28d7ef607d760969ebc2d7017ab-1","customer_ip":"1.2.3.4","currency":"AUD","test":true}'
    headers:
      Accept-Encoding:
      - gzip;q=1.0,deflate;q=0.6,identity;q=0.3
      Accept:
      - application/json
      User-Agent:
      - Ruby
      Authorization:
      - Basic VEVTVDpURVNU
      Content-Type:
      - application/json
  response:
    status:
      code: 200
      message: OK
    headers:
      Date:
      - Wed, 05 Jul 2017 05:45:12 GMT
      Content-Type:
      - application/json; charset=utf-8
      Transfer-Encoding:
      - chunked
      Connection:
      - keep-alive
      Status:
      - 200 OK
      Cache-Control:
      - no-store
      X-Request-Version:
      - 1.19.41
      Pragma:
      - no-cache
      X-Request-Id:
      - 774f3f214866d77e77908dbaa3a8ba90
      X-Runtime:
      - '0.328123'
      X-Rack-Cache:
      - invalidate, pass
      X-Backend:
      - sbox-priv-gateway-a
    body:
      encoding: UTF-8
      string: '{"successful":true,"response":{"authorization":"744693","id":"071-P-2VZNP413","card_number":"512345XXXXXX2346","card_holder":"Matthew
        Savage","card_expiry":"2030-02-28","card_token":"fke86c5u","card_type":"MasterCard","card_category":"Credit","card_subcategory":"Standard","amount":10000,"decimal_amount":100.0,"successful":true,"message":"Approved","reference":"34d2e28d7ef607d760969ebc2d7017ab-1","currency":"AUD","transaction_id":"071-P-2VZNP413","settlement_date":"2017-07-05","transaction_date":"2017-07-05T15:45:12+10:00","response_code":"00","captured":true,"captured_amount":10000,"rrn":"071P2VZNP413","cvv_match":"M","metadata":{},"addendum_data":{}},"errors":[],"test":true}'
    http_version: 
  recorded_at: Wed, 05 Jul 2017 05:45:12 GMT
- request:
    method: get
    uri: https://gateway.sandbox.fatzebra.com.au/v1.0/purchases?from=2017/07/05&limit=10&offets=0&test=true
    body:
      encoding: US-ASCII
      string: ''
    headers:
      Accept-Encoding:
      - gzip;q=1.0,deflate;q=0.6,identity;q=0.3
      Accept:
      - application/json
      User-Agent:
      - Ruby
      Host:
      - gateway.sandbox.fatzebra.com.au
      Authorization:
      - Basic VEVTVDpURVNU
      Content-Type:
      - application/json
  response:
    status:
      code: 200
      message: OK
    headers:
      Date:
      - Wed, 05 Jul 2017 05:45:12 GMT
      Content-Type:
      - application/json; charset=utf-8
      Transfer-Encoding:
      - chunked
      Connection:
      - keep-alive
      Status:
      - 200 OK
      X-Rack-Cache:
      - miss
      Cache-Control:
      - no-store, private
      X-Request-Version:
      - 1.19.41
      X-Runtime:
      - '0.038833'
      Pragma:
      - no-cache
      X-Request-Id:
      - b108bd9127384d8f3fbdf77c609a16c8
      X-Backend:
      - sbox-priv-gateway-a
    body:
      encoding: UTF-8
      string: '{"successful":true,"response":[{"authorization":"744693","id":"071-P-2VZNP413","card_number":"512345XXXXXX2346","card_holder":"Matthew
        Savage","card_expiry":"2030-02-28","card_token":"fke86c5u","card_type":"MasterCard","card_category":"Credit","card_subcategory":"Standard","amount":10000,"decimal_amount":100.0,"successful":true,"message":"Approved","reference":"34d2e28d7ef607d760969ebc2d7017ab-1","currency":"AUD","transaction_id":"071-P-2VZNP413","settlement_date":"2017-07-05","transaction_date":"2017-07-05T15:45:12+10:00","response_code":"00","captured":true,"captured_amount":10000,"rrn":"071P2VZNP413","cvv_match":"M","metadata":{},"addendum_data":{}},{"authorization":"881799","id":"071-P-56YB62C8","card_number":"512345XXXXXX2346","card_holder":"Matthew
        Savage","card_expiry":"2030-02-28","card_token":"fke86c5u","card_type":"MasterCard","card_category":"Credit","card_subcategory":"Standard","amount":10000,"decimal_amount":100.0,"successful":true,"message":"Approved","reference":"500bc3154a25fcb135441a0bb37c8bd8-0","currency":"AUD","transaction_id":"071-P-56YB62C8","settlement_date":"2017-07-05","transaction_date":"2017-07-05T15:45:11+10:00","response_code":"00","captured":true,"captured_amount":10000,"rrn":"071P56YB62C8","cvv_match":"M","metadata":{},"addendum_data":{}},{"authorization":"356983","id":"071-P-23O82NEW","card_number":"512345XXXXXX2346","card_holder":"Matthew
        Savage","card_expiry":"2030-02-28","card_token":"fke86c5u","card_type":"MasterCard","card_category":"Credit","card_subcategory":"Standard","amount":10000,"decimal_amount":100.0,"successful":true,"message":"Approved","reference":"6206092e1947d5828adeebb7f14e8c81","currency":"AUD","transaction_id":"071-P-23O82NEW","settlement_date":"2017-07-05","transaction_date":"2017-07-05T15:45:11+10:00","response_code":"00","captured":true,"captured_amount":10000,"rrn":"071P23O82NEW","cvv_match":"M","metadata":{},"addendum_data":{}},{"authorization":"533080","id":"071-P-WA5KQSR7","card_number":"512345XXXXXX2346","card_holder":"Matthew
        Savage","card_expiry":"2030-02-28","card_token":"fke86c5u","card_type":"MasterCard","card_category":"Credit","card_subcategory":"Standard","amount":10000,"decimal_amount":100.0,"successful":true,"message":"Approved","reference":"3b0497feb03e9ce4fc16880ffcdf1810-1","currency":"AUD","transaction_id":"071-P-WA5KQSR7","settlement_date":"2017-07-05","transaction_date":"2017-07-05T15:44:05+10:00","response_code":"00","captured":true,"captured_amount":10000,"rrn":"071PWA5KQSR7","cvv_match":"M","metadata":{},"addendum_data":{}},{"authorization":"133919","id":"071-P-DQ1I6FDM","card_number":"512345XXXXXX2346","card_holder":"Matthew
        Savage","card_expiry":"2030-02-28","card_token":"fke86c5u","card_type":"MasterCard","card_category":"Credit","card_subcategory":"Standard","amount":10000,"decimal_amount":100.0,"successful":true,"message":"Approved","reference":"9c9782997ad6a62e1cb68c3a4ac0c034-0","currency":"AUD","transaction_id":"071-P-DQ1I6FDM","settlement_date":"2017-07-05","transaction_date":"2017-07-05T15:44:05+10:00","response_code":"00","captured":true,"captured_amount":10000,"rrn":"071PDQ1I6FDM","cvv_match":"M","metadata":{},"addendum_data":{}},{"authorization":"600286","id":"071-P-UG6KHRSX","card_number":"512345XXXXXX2346","card_holder":"Matthew
        Savage","card_expiry":"2030-02-28","card_token":"fke86c5u","card_type":"MasterCard","card_category":"Credit","card_subcategory":"Standard","amount":10000,"decimal_amount":100.0,"successful":true,"message":"Approved","reference":"73a2544b39cbd4438d7a74d72e248c44-1","currency":"AUD","transaction_id":"071-P-UG6KHRSX","settlement_date":"2017-07-05","transaction_date":"2017-07-05T15:44:03+10:00","response_code":"00","captured":true,"captured_amount":10000,"rrn":"071PUG6KHRSX","cvv_match":"M","metadata":{},"addendum_data":{}},{"authorization":"382675","id":"071-P-S2MY9MWS","card_number":"512345XXXXXX2346","card_holder":"Matthew
        Savage","card_expiry":"2030-02-28","card_token":"fke86c5u","card_type":"MasterCard","card_category":"Credit","card_subcategory":"Standard","amount":10000,"decimal_amount":100.0,"successful":true,"message":"Approved","reference":"a2e48ffb40408b6e8f82480cd82a0843-0","currency":"AUD","transaction_id":"071-P-S2MY9MWS","settlement_date":"2017-07-05","transaction_date":"2017-07-05T15:44:02+10:00","response_code":"00","captured":true,"captured_amount":10000,"rrn":"071PS2MY9MWS","cvv_match":"M","metadata":{},"addendum_data":{}},{"authorization":"148114","id":"071-P-RTV7SA4G","card_number":"512345XXXXXX2346","card_holder":"Matthew
        Savage","card_expiry":"2030-02-28","card_token":"fke86c5u","card_type":"MasterCard","card_category":"Credit","card_subcategory":"Standard","amount":10000,"decimal_amount":100.0,"successful":true,"message":"Approved","reference":"514f9947f3d2efaa5793b4336cd36cff-1","currency":"AUD","transaction_id":"071-P-RTV7SA4G","settlement_date":"2017-07-05","transaction_date":"2017-07-05T15:44:00+10:00","response_code":"00","captured":true,"captured_amount":10000,"rrn":"071PRTV7SA4G","cvv_match":"M","metadata":{},"addendum_data":{}},{"authorization":"841988","id":"071-P-ZQQNODJV","card_number":"512345XXXXXX2346","card_holder":"Matthew
        Savage","card_expiry":"2030-02-28","card_token":"fke86c5u","card_type":"MasterCard","card_category":"Credit","card_subcategory":"Standard","amount":10000,"decimal_amount":100.0,"successful":true,"message":"Approved","reference":"f5b98562e377f502a31b8d64ee2db026-0","currency":"AUD","transaction_id":"071-P-ZQQNODJV","settlement_date":"2017-07-05","transaction_date":"2017-07-05T15:44:00+10:00","response_code":"00","captured":true,"captured_amount":10000,"rrn":"071PZQQNODJV","cvv_match":"M","metadata":{},"addendum_data":{}},{"authorization":"864743","id":"071-P-YYB7TT2I","card_number":"512345XXXXXX2346","card_holder":"Matthew
        Savage","card_expiry":"2030-02-28","card_token":"fke86c5u","card_type":"MasterCard","card_category":"Credit","card_subcategory":"Standard","amount":10000,"decimal_amount":100.0,"successful":true,"message":"Approved","reference":"372581983d6d0ef40df970cf37115b70-1","currency":"AUD","transaction_id":"071-P-YYB7TT2I","settlement_date":"2017-07-05","transaction_date":"2017-07-05T15:43:57+10:00","response_code":"00","captured":true,"captured_amount":10000,"rrn":"071PYYB7TT2I","cvv_match":"M","metadata":{},"addendum_data":{}}],"errors":[],"test":true,"records":10,"total_records":74,"page":1,"total_pages":8}'
    http_version: 
  recorded_at: Wed, 05 Jul 2017 05:45:12 GMT
recorded_with: VCR 3.0.3
