---
http_interactions:
- request:
    method: post
    uri: https://gateway.sandbox.fatzebra.com.au/v1.0/purchases
    body:
      encoding: UTF-8
      string: '{"amount":10000,"card_holder":"Matthew Savage","card_number":"5123456789012346","card_expiry":"02/2030","cvv":123,"reference":"1a5f050168843e8f752b6abc693241a9-0","customer_ip":"1.2.3.4","currency":"AUD","test":true}'
    headers:
      Accept-Encoding:
      - gzip;q=1.0,deflate;q=0.6,identity;q=0.3
      Accept:
      - application/json
      User-Agent:
      - Ruby
      Authorization:
      - Basic VEVTVDpURVNU
      Content-Type:
      - application/json
  response:
    status:
      code: 200
      message: OK
    headers:
      Date:
      - Wed, 05 Jul 2017 05:43:50 GMT
      Content-Type:
      - application/json; charset=utf-8
      Transfer-Encoding:
      - chunked
      Connection:
      - keep-alive
      Status:
      - 200 OK
      X-Rack-Cache:
      - invalidate, pass
      Cache-Control:
      - no-store
      X-Request-Version:
      - 1.19.41
      X-Runtime:
      - '0.307787'
      Pragma:
      - no-cache
      X-Request-Id:
      - e2ad4b941f7de36a7bc4ad2cb0538eb0
      X-Backend:
      - sbox-priv-gateway-a
    body:
      encoding: UTF-8
      string: '{"successful":true,"response":{"authorization":"784658","id":"071-P-1MRPKCLJ","card_number":"512345XXXXXX2346","card_holder":"Matthew
        Savage","card_expiry":"2030-02-28","card_token":"fke86c5u","card_type":"MasterCard","card_category":"Credit","card_subcategory":"Standard","amount":10000,"decimal_amount":100.0,"successful":true,"message":"Approved","reference":"1a5f050168843e8f752b6abc693241a9-0","currency":"AUD","transaction_id":"071-P-1MRPKCLJ","settlement_date":"2017-07-05","transaction_date":"2017-07-05T15:43:50+10:00","response_code":"00","captured":true,"captured_amount":10000,"rrn":"071P1MRPKCLJ","cvv_match":"M","metadata":{},"addendum_data":{}},"errors":[],"test":true}'
    http_version: 
  recorded_at: Wed, 05 Jul 2017 05:43:50 GMT
- request:
    method: post
    uri: https://gateway.sandbox.fatzebra.com.au/v1.0/purchases
    body:
      encoding: UTF-8
      string: '{"amount":10000,"card_holder":"Matthew Savage","card_number":"5123456789012346","card_expiry":"02/2030","cvv":123,"reference":"657d9afa572ecf867380ec4f00d57077-1","customer_ip":"1.2.3.4","currency":"AUD","test":true}'
    headers:
      Accept-Encoding:
      - gzip;q=1.0,deflate;q=0.6,identity;q=0.3
      Accept:
      - application/json
      User-Agent:
      - Ruby
      Authorization:
      - Basic VEVTVDpURVNU
      Content-Type:
      - application/json
  response:
    status:
      code: 200
      message: OK
    headers:
      Date:
      - Wed, 05 Jul 2017 05:43:50 GMT
      Content-Type:
      - application/json; charset=utf-8
      Transfer-Encoding:
      - chunked
      Connection:
      - keep-alive
      Status:
      - 200 OK
      Cache-Control:
      - no-store
      X-Request-Version:
      - 1.19.41
      Pragma:
      - no-cache
      X-Request-Id:
      - 2a205a5ef902bd9b1d79cab21adc75a3
      X-Runtime:
      - '0.320227'
      X-Rack-Cache:
      - invalidate, pass
      X-Backend:
      - sbox-priv-gateway-a
    body:
      encoding: UTF-8
      string: '{"successful":true,"response":{"authorization":"561857","id":"071-P-L8XYVJHQ","card_number":"512345XXXXXX2346","card_holder":"Matthew
        Savage","card_expiry":"2030-02-28","card_token":"fke86c5u","card_type":"MasterCard","card_category":"Credit","card_subcategory":"Standard","amount":10000,"decimal_amount":100.0,"successful":true,"message":"Approved","reference":"657d9afa572ecf867380ec4f00d57077-1","currency":"AUD","transaction_id":"071-P-L8XYVJHQ","settlement_date":"2017-07-05","transaction_date":"2017-07-05T15:43:50+10:00","response_code":"00","captured":true,"captured_amount":10000,"rrn":"071PL8XYVJHQ","cvv_match":"M","metadata":{},"addendum_data":{}},"errors":[],"test":true}'
    http_version: 
  recorded_at: Wed, 05 Jul 2017 05:43:50 GMT
- request:
    method: get
    uri: https://gateway.sandbox.fatzebra.com.au/v1.0/purchases?from=2017/07/05&limit=10&offets=0&test=true
    body:
      encoding: US-ASCII
      string: ''
    headers:
      Accept-Encoding:
      - gzip;q=1.0,deflate;q=0.6,identity;q=0.3
      Accept:
      - application/json
      User-Agent:
      - Ruby
      Host:
      - gateway.sandbox.fatzebra.com.au
      Authorization:
      - Basic VEVTVDpURVNU
      Content-Type:
      - application/json
  response:
    status:
      code: 200
      message: OK
    headers:
      Date:
      - Wed, 05 Jul 2017 05:43:51 GMT
      Content-Type:
      - application/json; charset=utf-8
      Transfer-Encoding:
      - chunked
      Connection:
      - keep-alive
      Status:
      - 200 OK
      X-Rack-Cache:
      - miss
      Cache-Control:
      - no-store, private
      X-Request-Version:
      - 1.19.41
      X-Runtime:
      - '0.042046'
      Pragma:
      - no-cache
      X-Request-Id:
      - f5a7dd7705f5dc7dd73c4fab11a36328
      X-Backend:
      - sbox-priv-gateway-a
    body:
      encoding: UTF-8
      string: '{"successful":true,"response":[{"authorization":"561857","id":"071-P-L8XYVJHQ","card_number":"512345XXXXXX2346","card_holder":"Matthew
        Savage","card_expiry":"2030-02-28","card_token":"fke86c5u","card_type":"MasterCard","card_category":"Credit","card_subcategory":"Standard","amount":10000,"decimal_amount":100.0,"successful":true,"message":"Approved","reference":"657d9afa572ecf867380ec4f00d57077-1","currency":"AUD","transaction_id":"071-P-L8XYVJHQ","settlement_date":"2017-07-05","transaction_date":"2017-07-05T15:43:50+10:00","response_code":"00","captured":true,"captured_amount":10000,"rrn":"071PL8XYVJHQ","cvv_match":"M","metadata":{},"addendum_data":{}},{"authorization":"784658","id":"071-P-1MRPKCLJ","card_number":"512345XXXXXX2346","card_holder":"Matthew
        Savage","card_expiry":"2030-02-28","card_token":"fke86c5u","card_type":"MasterCard","card_category":"Credit","card_subcategory":"Standard","amount":10000,"decimal_amount":100.0,"successful":true,"message":"Approved","reference":"1a5f050168843e8f752b6abc693241a9-0","currency":"AUD","transaction_id":"071-P-1MRPKCLJ","settlement_date":"2017-07-05","transaction_date":"2017-07-05T15:43:50+10:00","response_code":"00","captured":true,"captured_amount":10000,"rrn":"071P1MRPKCLJ","cvv_match":"M","metadata":{},"addendum_data":{}},{"authorization":"374470","id":"071-P-G6FFZFNL","card_number":"512345XXXXXX2346","card_holder":"Matthew
        Savage","card_expiry":"2030-02-28","card_token":"fke86c5u","card_type":"MasterCard","card_category":"Credit","card_subcategory":"Standard","amount":10000,"decimal_amount":100.0,"successful":true,"message":"Approved","reference":"e972c72a1bc57a5710fc86a4ad02ced9-1","currency":"AUD","transaction_id":"071-P-G6FFZFNL","settlement_date":"2017-07-05","transaction_date":"2017-07-05T15:43:49+10:00","response_code":"00","captured":true,"captured_amount":10000,"rrn":"071PG6FFZFNL","cvv_match":"M","metadata":{},"addendum_data":{}},{"authorization":"712136","id":"071-P-HJLNY3Z4","card_number":"512345XXXXXX2346","card_holder":"Matthew
        Savage","card_expiry":"2030-02-28","card_token":"fke86c5u","card_type":"MasterCard","card_category":"Credit","card_subcategory":"Standard","amount":10000,"decimal_amount":100.0,"successful":true,"message":"Approved","reference":"6c174dcb8ac6c1ece84dbe90ced5033b-0","currency":"AUD","transaction_id":"071-P-HJLNY3Z4","settlement_date":"2017-07-05","transaction_date":"2017-07-05T15:43:49+10:00","response_code":"00","captured":true,"captured_amount":10000,"rrn":"071PHJLNY3Z4","cvv_match":"M","metadata":{},"addendum_data":{}},{"authorization":"906232","id":"071-P-YJ6QOD2J","card_number":"512345XXXXXX2346","card_holder":"Matthew
        Savage","card_expiry":"2030-02-28","card_token":"fke86c5u","card_type":"MasterCard","card_category":"Credit","card_subcategory":"Standard","amount":10000,"decimal_amount":100.0,"successful":true,"message":"Approved","reference":"e3e7992275f89000f4a79c93c81521e5","currency":"AUD","transaction_id":"071-P-YJ6QOD2J","settlement_date":"2017-07-05","transaction_date":"2017-07-05T15:43:49+10:00","response_code":"00","captured":true,"captured_amount":10000,"rrn":"071PYJ6QOD2J","cvv_match":"M","metadata":{},"addendum_data":{}},{"authorization":"572665","id":"071-P-WH42JBGW","card_number":"512345XXXXXX2346","card_holder":"Matthew
        Savage","card_expiry":"2030-02-28","card_token":"fke86c5u","card_type":"MasterCard","card_category":"Credit","card_subcategory":"Standard","amount":10000,"decimal_amount":100.0,"successful":true,"message":"Approved","reference":"62690132d5c53957f005b12e42663adf","currency":"AUD","transaction_id":"071-P-WH42JBGW","settlement_date":"2017-07-05","transaction_date":"2017-07-05T15:43:48+10:00","response_code":"00","captured":true,"captured_amount":10000,"rrn":"071PWH42JBGW","cvv_match":"M","metadata":{},"addendum_data":{}},{"authorization":"600897","id":"071-P-IKUN727G","card_number":"512345XXXXXX2346","card_holder":"Matthew
        Savage","card_expiry":"2030-02-28","card_token":"fke86c5u","card_type":"MasterCard","card_category":"Credit","card_subcategory":"Standard","amount":10000,"decimal_amount":100.0,"successful":true,"message":"Approved","reference":"eb5e102aa89d2e6b0f8a7d9cf5494efb","currency":"AUD","transaction_id":"071-P-IKUN727G","settlement_date":"2017-07-05","transaction_date":"2017-07-05T15:43:47+10:00","response_code":"00","captured":true,"captured_amount":10000,"rrn":"071PIKUN727G","cvv_match":"M","metadata":{},"addendum_data":{}},{"authorization":"951998","id":"071-P-MXQ6748P","card_number":"512345XXXXXX2346","card_holder":"Matthew
        Savage","card_expiry":"2030-02-28","card_token":"fke86c5u","card_type":"MasterCard","card_category":"Credit","card_subcategory":"Standard","amount":10000,"decimal_amount":100.0,"successful":true,"message":"Approved","reference":"be97ecc606de99fd9eb7f9866be401eb","currency":"AUD","transaction_id":"071-P-MXQ6748P","settlement_date":"2017-07-05","transaction_date":"2017-07-05T15:43:47+10:00","response_code":"00","captured":true,"captured_amount":10000,"rrn":"071PMXQ6748P","cvv_match":"M","metadata":{},"addendum_data":{}},{"authorization":"795310","id":"071-P-J2QRN220","card_number":"512345XXXXXX2346","card_holder":"Matthew
        Savage","card_expiry":"2030-02-28","card_token":"fke86c5u","card_type":"MasterCard","card_category":"Credit","card_subcategory":"Standard","amount":10000,"decimal_amount":100.0,"successful":true,"message":"Approved","reference":"7bd0b4bbc1a93222070cbf022465fc17","currency":"AUD","transaction_id":"071-P-J2QRN220","settlement_date":"2017-07-05","transaction_date":"2017-07-05T15:43:43+10:00","response_code":"00","captured":true,"captured_amount":10000,"rrn":"071PJ2QRN220","cvv_match":"M","metadata":{},"addendum_data":{}},{"authorization":"540184","id":"071-P-I20AXFK9","card_number":"411111XXXXXX1111","card_holder":"Card
        Holder","card_expiry":"2022-12-01","card_token":"fke8byat","card_type":"VISA","card_category":"Credit","card_subcategory":"Credit","amount":100,"decimal_amount":1.0,"successful":true,"message":"Approved","reference":"3x0sdvq5","currency":"AUD","transaction_id":"071-P-I20AXFK9","settlement_date":"2017-07-05","transaction_date":"2017-07-05T15:39:13+10:00","response_code":"00","captured":true,"captured_amount":100,"rrn":"071PI20AXFK9","cvv_match":"M","metadata":{},"addendum_data":{}}],"errors":[],"test":true,"records":10,"total_records":52,"page":1,"total_pages":6}'
    http_version: 
  recorded_at: Wed, 05 Jul 2017 05:43:51 GMT
recorded_with: VCR 3.0.3
